PCBNEW-LibModule-V1  2019-09-13 13:53:04
# encoding utf-8
Units mm
$INDEX
SJ3524SMTTRGR
$EndINDEX
$MODULE SJ3524SMTTRGR
Po 0 0 0 15 5d7b9130 00000000 ~~
Li SJ3524SMTTRGR
Cd SJ-3524-SMT-TR-GR-1
Kw Connector
Sc 0
At STD
AR 
Op 0 0 0
T0 0.050 0.325 1.27 1.27 0 0.254 N V 21 N "J**"
T1 0.050 0.325 1.27 1.27 0 0.254 N I 21 N "SJ3524SMTTRGR"
DS -7.25 3 7.25 3 0.2 24
DS 7.25 3 7.25 -3 0.2 24
DS 7.25 -3 -7.25 -3 0.2 24
DS -7.25 -3 -7.25 3 0.2 24
DS -7.25 -2.5 -9.75 -2.5 0.2 24
DS -9.75 -2.5 -9.75 2.5 0.2 24
DS -9.75 2.5 -7.25 2.5 0.2 24
DS -7.25 2.5 -7.25 -2.5 0.2 24
DS -4.5 -3 -7.25 -3 0.1 21
DS -7.25 -3 -7.25 -3 0.1 21
DS -7.25 -3 -4.5 -3 0.1 21
DS -4.5 -3 -4.5 -3 0.1 21
DS -7.25 -3 -7.25 -3 0.1 21
DS -7.25 -3 -7.25 3 0.1 21
DS -7.25 3 -7.25 3 0.1 21
DS -7.25 3 -7.25 -3 0.1 21
DS -7.25 3 -6.75 3 0.1 21
DS -6.75 3 -6.75 3 0.1 21
DS -6.75 3 -7.25 3 0.1 21
DS -7.25 3 -7.25 3 0.1 21
DS -3.25 3 2.5 3 0.1 21
DS 2.5 3 2.5 3 0.1 21
DS 2.5 3 -3.25 3 0.1 21
DS -3.25 3 -3.25 3 0.1 21
DS 6.5 3 7.25 3 0.1 21
DS 7.25 3 7.25 3 0.1 21
DS 7.25 3 6.5 3 0.1 21
DS 6.5 3 6.5 3 0.1 21
DS 7.25 3 7.25 3 0.1 21
DS 7.25 3 7.25 1.25 0.1 21
DS 7.25 1.25 7.25 1.25 0.1 21
DS 7.25 1.25 7.25 3 0.1 21
DS 7.25 -2.75 7.25 -2.75 0.1 21
DS 7.25 -2.75 7.25 -3 0.1 21
DS 7.25 -3 7.25 -3 0.1 21
DS 7.25 -3 7.25 -2.75 0.1 21
DS 7.25 -3 -1.25 -3 0.1 21
DS -1.25 -3 -1.25 -3 0.1 21
DS -1.25 -3 7.25 -3 0.1 21
DS 7.25 -3 7.25 -3 0.1 21
DS -10.75 -6.1 10.85 -6.1 0.1 24
DS 10.85 -6.1 10.85 6.75 0.1 24
DS 10.85 6.75 -10.75 6.75 0.1 24
DS -10.75 6.75 -10.75 -6.1 0.1 24
DS -5 5.7 -5 5.7 0.2 21
DS -4.9 5.7 -4.9 5.7 0.2 21
DS -5 5.7 -5 5.7 0.2 21
DA -4.95 5.7 -5.000 5.7 -1800 0.2 21
DA -4.95 5.7 -4.900 5.7 -1800 0.2 21
DA -4.95 5.7 -5.000 5.7 -1800 0.2 21
$PAD
Po -4.850 3.7
Sh "1" R 2.200 2.800 0 0 0
At SMD N 00888000
Ne 0 ""
$EndPAD
$PAD
Po 4.550 3.7
Sh "2" R 2.800 2.800 0 0 900
At SMD N 00888000
Ne 0 ""
$EndPAD
$PAD
Po -2.850 -3.7
Sh "3" R 2.200 2.800 0 0 0
At SMD N 00888000
Ne 0 ""
$EndPAD
$PAD
Po 8.450 -0.75
Sh "4" R 2.800 2.800 0 0 900
At SMD N 00888000
Ne 0 ""
$EndPAD
$PAD
Po -3.750 -0
Sh "MH1" C 0.850 0.850 0 0 900
Dr 1.7 0 0
At STD N 00E0FFFF
Ne 0 ""
$EndPAD
$PAD
Po 3.250 -0
Sh "MH2" C 0.850 0.850 0 0 900
Dr 1.7 0 0
At STD N 00E0FFFF
Ne 0 ""
$EndPAD
$EndMODULE SJ3524SMTTRGR
$EndLIBRARY
