EESchema Schematic File Version 4
LIBS:SynthesizESP-cache
EELAYER 30 0
EELAYER END
$Descr A4 11693 8268
encoding utf-8
Sheet 1 2
Title ""
Date ""
Rev ""
Comp ""
Comment1 ""
Comment2 ""
Comment3 ""
Comment4 ""
$EndDescr
$Comp
L SmartCeva_1.0-eagle-import:ESP32-WROVER-I A1
U 1 1 5D7B3462
P 2000 2475
F 0 "A1" H 2000 3861 59  0000 C CNN
F 1 "ESP32-WROVER-I" H 2000 3756 59  0000 C CNN
F 2 "SmartCeva_1.0:XCVR_ESP32-WROVER-I" H 2000 2475 50  0001 C CNN
F 3 "" H 2000 2475 50  0001 C CNN
	1    2000 2475
	1    0    0    -1  
$EndComp
$Comp
L MAX98357AETE+:MAX98357AETE+ U1
U 1 1 5D7B4C5E
P 3800 2125
F 0 "U1" H 5075 2700 50  0000 L CNN
F 1 "MAX98357AETE+" H 4275 2275 50  0000 L CNN
F 2 "QFN50P300X300X80-17N" H 5250 2625 50  0001 L CNN
F 3 "https://datasheets.maximintegrated.com/en/ds/MAX98357A-MAX98357B.pdf" H 5250 2525 50  0001 L CNN
F 4 "MAXIM INTEGRATED PRODUCTS - MAX98357AETE+ - AMPLIFIER, CLASS-D, 1-CH, 3.2W, TQFN-16" H 5250 2425 50  0001 L CNN "Description"
F 5 "0.8" H 5250 2325 50  0001 L CNN "Height"
F 6 "Maxim Integrated" H 5250 2225 50  0001 L CNN "Manufacturer_Name"
F 7 "MAX98357AETE+" H 5250 2125 50  0001 L CNN "Manufacturer_Part_Number"
F 8 "700-MAX98357AETE+" H 5250 2025 50  0001 L CNN "Mouser Part Number"
F 9 "https://www.mouser.com/Search/Refine.aspx?Keyword=700-MAX98357AETE%2B" H 5250 1925 50  0001 L CNN "Mouser Price/Stock"
F 10 "" H 5250 1825 50  0001 L CNN "RS Part Number"
F 11 "" H 5250 1725 50  0001 L CNN "RS Price/Stock"
	1    3800 2125
	1    0    0    -1  
$EndComp
Wire Wire Line
	1400 3275 1200 3275
Wire Wire Line
	2600 3175 2750 3175
Wire Wire Line
	2600 3275 2775 3275
Text GLabel 1200 3275 0    50   Output ~ 0
DOUT
Text GLabel 2750 3275 2    50   Input ~ 0
LRC
Text GLabel 2750 3175 2    50   Output ~ 0
BCLK
Wire Wire Line
	3800 2125 3350 2125
Wire Wire Line
	4700 1425 4700 1275
Wire Wire Line
	4500 1275 4500 1425
Text GLabel 4700 1275 1    50   Output ~ 0
LRC
Text GLabel 4500 1275 1    50   Input ~ 0
BCLK
Text GLabel 3350 2125 0    50   Input ~ 0
DOUT
Wire Wire Line
	2600 3475 2600 3575
Wire Wire Line
	4600 3125 4650 3125
Connection ~ 4650 3125
Wire Wire Line
	4650 3125 4700 3125
Wire Wire Line
	4600 1425 4600 1000
Wire Wire Line
	4600 1000 4400 1000
Wire Wire Line
	4400 1000 4400 1425
Wire Wire Line
	3800 2325 3375 2325
Wire Wire Line
	3375 2325 3375 1000
Wire Wire Line
	3375 1000 4400 1000
Connection ~ 4400 1000
$Comp
L power:GND #PWR0102
U 1 1 5D7E31E3
P 3375 2325
F 0 "#PWR0102" H 3375 2075 50  0001 C CNN
F 1 "GND" H 3380 2152 50  0000 C CNN
F 2 "" H 3375 2325 50  0001 C CNN
F 3 "" H 3375 2325 50  0001 C CNN
	1    3375 2325
	1    0    0    -1  
$EndComp
Connection ~ 3375 2325
$Comp
L power:GND #PWR0103
U 1 1 5D7E41DC
P 2600 3750
F 0 "#PWR0103" H 2600 3500 50  0001 C CNN
F 1 "GND" H 2605 3577 50  0000 C CNN
F 2 "" H 2600 3750 50  0001 C CNN
F 3 "" H 2600 3750 50  0001 C CNN
	1    2600 3750
	1    0    0    -1  
$EndComp
Wire Wire Line
	2600 3750 2600 3575
Connection ~ 2600 3575
Wire Wire Line
	2600 1025 1100 1025
Wire Wire Line
	1100 1025 1100 1775
$Comp
L power:GND #PWR0104
U 1 1 5D7E6403
P 1200 1975
F 0 "#PWR0104" H 1200 1725 50  0001 C CNN
F 1 "GND" V 1200 1800 50  0000 C CNN
F 2 "" H 1200 1975 50  0001 C CNN
F 3 "" H 1200 1975 50  0001 C CNN
	1    1200 1975
	0    1    1    0   
$EndComp
$Comp
L Device:R_Small_US R1
U 1 1 5D7E6AE1
P 1200 1775
F 0 "R1" V 995 1775 50  0000 C CNN
F 1 "10K" V 1086 1775 50  0000 C CNN
F 2 "Resistor_SMD:R_0805_2012Metric" H 1200 1775 50  0001 C CNN
F 3 "~" H 1200 1775 50  0001 C CNN
	1    1200 1775
	0    1    1    0   
$EndComp
$Comp
L Device:C_Small C1
U 1 1 5D7E9C3E
P 1300 1875
F 0 "C1" H 1425 1900 50  0000 C CNN
F 1 "C_Small" H 1100 1875 50  0000 C CNN
F 2 "Capacitor_SMD:C_0603_1608Metric" H 1300 1875 50  0001 C CNN
F 3 "~" H 1300 1875 50  0001 C CNN
	1    1300 1875
	1    0    0    -1  
$EndComp
Wire Wire Line
	1200 1975 1300 1975
Wire Wire Line
	1400 1775 1300 1775
$Comp
L Device:C_Small C2
U 1 1 5D7EAE5F
P 2700 1175
F 0 "C2" V 2600 1175 50  0000 C CNN
F 1 "C_Small" V 2700 1475 50  0000 C CNN
F 2 "Capacitor_SMD:C_0805_2012Metric" H 2700 1175 50  0001 C CNN
F 3 "~" H 2700 1175 50  0001 C CNN
	1    2700 1175
	0    1    1    0   
$EndComp
$Comp
L Device:C_Small C3
U 1 1 5D7EB522
P 2700 1375
F 0 "C3" V 2600 1375 50  0000 C CNN
F 1 "C_Small" V 2700 1675 50  0000 C CNN
F 2 "Capacitor_SMD:C_0402_1005Metric" H 2700 1375 50  0001 C CNN
F 3 "~" H 2700 1375 50  0001 C CNN
	1    2700 1375
	0    1    1    0   
$EndComp
Connection ~ 2600 1375
$Comp
L power:GND #PWR0105
U 1 1 5D7EB8AF
P 2800 1525
F 0 "#PWR0105" H 2800 1275 50  0001 C CNN
F 1 "GND" H 2805 1352 50  0000 C CNN
F 2 "" H 2800 1525 50  0001 C CNN
F 3 "" H 2800 1525 50  0001 C CNN
	1    2800 1525
	1    0    0    -1  
$EndComp
Wire Wire Line
	2800 1175 2800 1375
Wire Wire Line
	2800 1525 2800 1375
Connection ~ 2800 1375
Connection ~ 1300 1775
$Comp
L power:+3V3 #PWR0106
U 1 1 5D8097E5
P 1100 1025
F 0 "#PWR0106" H 1100 875 50  0001 C CNN
F 1 "+3V3" V 1115 1153 50  0000 L CNN
F 2 "" H 1100 1025 50  0001 C CNN
F 3 "" H 1100 1025 50  0001 C CNN
	1    1100 1025
	0    -1   -1   0   
$EndComp
Connection ~ 1100 1025
Wire Wire Line
	6000 2425 6000 2600
Wire Wire Line
	6000 2425 6075 2425
Wire Wire Line
	5850 2325 5850 2600
$Comp
L Device:C_Small C6
U 1 1 5D7B6472
P 6000 2700
F 0 "C6" H 6075 2725 50  0000 L CNN
F 1 "C_Small" H 6075 2650 50  0000 L CNN
F 2 "Capacitor_SMD:C_0805_2012Metric" H 6000 2700 50  0001 C CNN
F 3 "~" H 6000 2700 50  0001 C CNN
	1    6000 2700
	1    0    0    -1  
$EndComp
$Comp
L Device:C_Small C5
U 1 1 5D7B686E
P 5850 2700
F 0 "C5" H 5650 2725 50  0000 L CNN
F 1 "C_Small" H 5525 2650 50  0000 L CNN
F 2 "Capacitor_SMD:C_0805_2012Metric" H 5850 2700 50  0001 C CNN
F 3 "~" H 5850 2700 50  0001 C CNN
	1    5850 2700
	1    0    0    -1  
$EndComp
Wire Wire Line
	5925 2800 5925 2900
Connection ~ 5925 2800
Wire Wire Line
	5925 2800 5850 2800
$Comp
L power:GND #PWR0107
U 1 1 5D7B7597
P 5925 2900
F 0 "#PWR0107" H 5925 2650 50  0001 C CNN
F 1 "GND" H 5925 2800 50  0000 C CNN
F 2 "" H 5925 2900 50  0001 C CNN
F 3 "" H 5925 2900 50  0001 C CNN
	1    5925 2900
	1    0    0    -1  
$EndComp
Wire Wire Line
	5625 2225 5400 2225
Wire Wire Line
	4600 1000 5625 1000
Connection ~ 4600 1000
$Comp
L SynthesizESP-rescue:FERRITE-Adafruit_MAX98357_Breakout-eagle-import FB1
U 1 1 5D7BB326
P 5625 2325
F 0 "FB1" H 5700 2475 42  0000 C CNN
F 1 "FERRITE" H 5675 2400 42  0000 C CNN
F 2 "Adafruit MAX98357 Breakout:0805-NO" H 5625 2325 50  0001 C CNN
F 3 "" H 5625 2325 50  0001 C CNN
	1    5625 2325
	1    0    0    -1  
$EndComp
$Comp
L SynthesizESP-rescue:FERRITE-Adafruit_MAX98357_Breakout-eagle-import FB2
U 1 1 5D7BBA7E
P 5625 2425
F 0 "FB2" H 5625 2275 42  0000 C CNN
F 1 "FERRITE" H 5600 2350 42  0000 C CNN
F 2 "Adafruit MAX98357 Breakout:0805-NO" H 5625 2425 50  0001 C CNN
F 3 "" H 5625 2425 50  0001 C CNN
	1    5625 2425
	1    0    0    -1  
$EndComp
Wire Wire Line
	5850 2325 5725 2325
Connection ~ 5850 2325
Wire Wire Line
	6000 2425 5725 2425
Connection ~ 6000 2425
Wire Wire Line
	5525 2425 5400 2425
Wire Wire Line
	5525 2325 5400 2325
$Comp
L Device:C_Small C4
U 1 1 5D7CE811
P 4850 3175
F 0 "C4" V 4950 3125 50  0000 L CNN
F 1 "C_Small" V 5025 3025 50  0000 L CNN
F 2 "Capacitor_SMD:C_0805_2012Metric" H 4850 3175 50  0001 C CNN
F 3 "~" H 4850 3175 50  0001 C CNN
	1    4850 3175
	0    -1   -1   0   
$EndComp
$Comp
L Device:C_Small C7
U 1 1 5D7CE817
P 4850 3300
F 0 "C7" V 4725 3250 50  0000 L CNN
F 1 "C_Small" V 4675 3150 50  0000 L CNN
F 2 "Capacitor_SMD:C_0805_2012Metric" H 4850 3300 50  0001 C CNN
F 3 "~" H 4850 3300 50  0001 C CNN
	1    4850 3300
	0    -1   -1   0   
$EndComp
Wire Wire Line
	4950 3175 4950 3250
Wire Wire Line
	4950 3250 5075 3250
Wire Wire Line
	5075 3250 5075 3400
Connection ~ 4950 3250
Wire Wire Line
	4950 3250 4950 3300
$Comp
L power:GND #PWR0108
U 1 1 5D7D180E
P 5075 3400
F 0 "#PWR0108" H 5075 3150 50  0001 C CNN
F 1 "GND" H 5080 3227 50  0000 C CNN
F 2 "" H 5075 3400 50  0001 C CNN
F 3 "" H 5075 3400 50  0001 C CNN
	1    5075 3400
	1    0    0    -1  
$EndComp
Wire Wire Line
	4650 3125 4650 3175
Wire Wire Line
	4750 3300 4650 3300
Connection ~ 4650 3300
Wire Wire Line
	4650 3300 4650 3400
Wire Wire Line
	4750 3175 4650 3175
Connection ~ 4650 3175
Wire Wire Line
	1400 2275 1200 2275
Text GLabel 1200 2275 0    50   Output ~ 0
AMP_OFF
Text GLabel 3800 2600 0    50   Input ~ 0
SD-MODE-L
Wire Wire Line
	3800 2225 3675 2225
$Comp
L Device:R_Small_US R3
U 1 1 5D7EFFDE
P 3575 2225
F 0 "R3" V 3650 2225 50  0000 C CNN
F 1 "100K" V 3500 2225 50  0000 C CNN
F 2 "Resistor_SMD:R_0805_2012Metric" H 3575 2225 50  0001 C CNN
F 3 "~" H 3575 2225 50  0001 C CNN
	1    3575 2225
	0    1    1    0   
$EndComp
Wire Wire Line
	3200 2225 3200 2325
Wire Wire Line
	3475 2225 3200 2225
$Comp
L DM3AT-SF-PEJM5(42):DM3AT-SF-PEJM5(42) J2
U 1 1 5D807014
P 9150 5050
F 0 "J2" H 10930 4443 50  0000 L CNN
F 1 "DM3AT-SF-PEJM5(42)" H 9750 5175 50  0000 L CNN
F 2 "DM3ATSFPEJM542" H 9800 5200 50  0001 L CNN
F 3 "https://www.hirose.com/product/document?clcode=CL0609-0031-0-00&productname=DM3AT-SF-PEJM5&series=DM3&documenttype=2DDrawing&lang=en&documentid=0000947170" H 10900 4900 50  0001 L CNN
F 4 "Memory Card Connectors SD R/A PUSH-PUSH SMD CONN MICRO" H 10900 4800 50  0001 L CNN "Description"
F 5 "1.83" H 10900 4650 50  0001 L CNN "Height"
F 6 "Hirose" H 10900 4700 50  0001 L CNN "Manufacturer_Name"
F 7 "DM3AT-SF-PEJM5(42)" H 10900 4550 50  0001 L CNN "Manufacturer_Part_Number"
F 8 "798-DM3AT-SF-PEJM542" H 10900 4450 50  0001 L CNN "Mouser Part Number"
F 9 "https://www.mouser.com/Search/Refine.aspx?Keyword=798-DM3AT-SF-PEJM542" H 10900 4300 50  0001 L CNN "Mouser Price/Stock"
	1    9150 5050
	1    0    0    -1  
$EndComp
Wire Wire Line
	9150 5050 8900 5050
Wire Wire Line
	9150 5150 8825 5150
Wire Wire Line
	9150 5350 9075 5350
Wire Wire Line
	9150 5450 8675 5450
Wire Wire Line
	9150 5650 9075 5650
Wire Wire Line
	9150 5750 8575 5750
Wire Wire Line
	9075 5650 9075 5850
Wire Wire Line
	9075 5850 9150 5850
Connection ~ 9075 5650
Wire Wire Line
	9075 5650 8250 5650
Wire Wire Line
	9150 6150 8975 6150
Wire Wire Line
	8975 6150 8975 4950
Wire Wire Line
	8900 5050 8900 4950
Connection ~ 8900 5050
Wire Wire Line
	8900 5050 8025 5050
Wire Wire Line
	8825 5150 8825 4950
Connection ~ 8825 5150
Wire Wire Line
	8825 5150 8025 5150
Wire Wire Line
	9150 5250 8750 5250
Wire Wire Line
	8750 5250 8750 4950
Connection ~ 8750 5250
Wire Wire Line
	8750 5250 8025 5250
Wire Wire Line
	8675 5450 8675 4950
Connection ~ 8675 5450
Wire Wire Line
	8675 5450 8025 5450
Wire Wire Line
	8575 5750 8575 4950
Connection ~ 8575 5750
Wire Wire Line
	8575 5750 8025 5750
Wire Wire Line
	9075 4750 8975 4750
Wire Wire Line
	9075 4750 9075 5275
Wire Wire Line
	8025 5550 8875 5550
$Comp
L power:+3.3V #PWR0110
U 1 1 5D82D289
P 8400 4650
F 0 "#PWR0110" H 8400 4500 50  0001 C CNN
F 1 "+3.3V" H 8415 4823 50  0000 C CNN
F 2 "" H 8400 4650 50  0001 C CNN
F 3 "" H 8400 4650 50  0001 C CNN
	1    8400 4650
	1    0    0    -1  
$EndComp
$Comp
L power:GND #PWR0111
U 1 1 5D82D64E
P 8025 5550
F 0 "#PWR0111" H 8025 5300 50  0001 C CNN
F 1 "GND" V 8030 5422 50  0000 R CNN
F 2 "" H 8025 5550 50  0001 C CNN
F 3 "" H 8025 5550 50  0001 C CNN
	1    8025 5550
	0    1    1    0   
$EndComp
Wire Wire Line
	9750 6400 9650 6400
Wire Wire Line
	9150 6050 9100 6050
Wire Wire Line
	9100 6050 9100 5950
Wire Wire Line
	9100 5950 9150 5950
Wire Wire Line
	9100 6400 9100 6050
Connection ~ 9100 6050
Wire Wire Line
	9100 6400 9650 6400
Connection ~ 9650 6400
Wire Wire Line
	9100 5950 9100 5550
Connection ~ 9100 5950
Connection ~ 9100 5550
Wire Wire Line
	9100 5550 9150 5550
$Comp
L Device:R_Small_US R4
U 1 1 5D83CC8B
P 8575 4850
F 0 "R4" V 8600 4950 50  0000 C CNN
F 1 "DNP" V 8575 4650 50  0000 C CNN
F 2 "Resistor_SMD:R_0402_1005Metric" H 8575 4850 50  0001 C CNN
F 3 "~" H 8575 4850 50  0001 C CNN
	1    8575 4850
	-1   0    0    1   
$EndComp
Connection ~ 8575 4750
$Comp
L Device:R_Small_US R5
U 1 1 5D83F696
P 8675 4850
F 0 "R5" V 8700 4950 50  0000 C CNN
F 1 "10K" V 8675 4650 50  0000 C CNN
F 2 "Resistor_SMD:R_0402_1005Metric" H 8675 4850 50  0001 C CNN
F 3 "~" H 8675 4850 50  0001 C CNN
	1    8675 4850
	-1   0    0    1   
$EndComp
Connection ~ 8675 4750
Wire Wire Line
	8675 4750 8575 4750
$Comp
L Device:R_Small_US R6
U 1 1 5D83F93F
P 8750 4850
F 0 "R6" V 8775 4950 50  0000 C CNN
F 1 "10K" V 8750 4650 50  0000 C CNN
F 2 "Resistor_SMD:R_0402_1005Metric" H 8750 4850 50  0001 C CNN
F 3 "~" H 8750 4850 50  0001 C CNN
	1    8750 4850
	-1   0    0    1   
$EndComp
Connection ~ 8750 4750
Wire Wire Line
	8750 4750 8675 4750
$Comp
L Device:R_Small_US R7
U 1 1 5D83FC45
P 8825 4850
F 0 "R7" V 8850 4950 50  0000 C CNN
F 1 "10K" V 8825 4650 50  0000 C CNN
F 2 "Resistor_SMD:R_0402_1005Metric" H 8825 4850 50  0001 C CNN
F 3 "~" H 8825 4850 50  0001 C CNN
	1    8825 4850
	-1   0    0    1   
$EndComp
Connection ~ 8825 4750
Wire Wire Line
	8825 4750 8750 4750
$Comp
L Device:R_Small_US R8
U 1 1 5D840006
P 8900 4850
F 0 "R8" V 8925 4950 50  0000 C CNN
F 1 "DNP" V 8900 4650 50  0000 C CNN
F 2 "Resistor_SMD:R_0402_1005Metric" H 8900 4850 50  0001 C CNN
F 3 "~" H 8900 4850 50  0001 C CNN
	1    8900 4850
	-1   0    0    1   
$EndComp
Connection ~ 8900 4750
Wire Wire Line
	8900 4750 8825 4750
$Comp
L Device:R_Small_US R9
U 1 1 5D8402B5
P 8975 4850
F 0 "R9" V 9000 4950 50  0000 C CNN
F 1 "2K" V 8975 4675 50  0000 C CNN
F 2 "Resistor_SMD:R_0402_1005Metric" H 8975 4850 50  0001 C CNN
F 3 "~" H 8975 4850 50  0001 C CNN
	1    8975 4850
	-1   0    0    1   
$EndComp
Connection ~ 8975 4750
Wire Wire Line
	8975 4750 8900 4750
$Comp
L Device:C_Small C8
U 1 1 5D845910
P 8975 5275
F 0 "C8" V 8975 5050 50  0000 L CNN
F 1 "C_Small" V 8950 5300 50  0000 L CNN
F 2 "Capacitor_SMD:C_0402_1005Metric" H 8975 5275 50  0001 C CNN
F 3 "~" H 8975 5275 50  0001 C CNN
	1    8975 5275
	0    -1   -1   0   
$EndComp
Connection ~ 9075 5275
Wire Wire Line
	9075 5275 9075 5350
$Comp
L Device:C_Small C9
U 1 1 5D847D1E
P 8975 5350
F 0 "C9" V 8925 5125 50  0000 L CNN
F 1 "C_Small" V 8925 5375 50  0000 L CNN
F 2 "Capacitor_SMD:C_0805_2012Metric" H 8975 5350 50  0001 C CNN
F 3 "~" H 8975 5350 50  0001 C CNN
	1    8975 5350
	0    -1   -1   0   
$EndComp
Connection ~ 9075 5350
Wire Wire Line
	8875 5550 8875 5350
Connection ~ 8875 5550
Wire Wire Line
	8875 5550 9100 5550
Wire Wire Line
	8875 5275 8875 5350
Connection ~ 8875 5350
Wire Wire Line
	8250 5650 8250 5900
Connection ~ 8250 5650
Wire Wire Line
	8250 5650 8025 5650
$Comp
L Device:R_Small_US R10
U 1 1 5D85A7E0
P 8250 6000
F 0 "R10" V 8045 6000 50  0000 C CNN
F 1 "DNP" V 8136 6000 50  0000 C CNN
F 2 "Resistor_SMD:R_0402_1005Metric" H 8250 6000 50  0001 C CNN
F 3 "~" H 8250 6000 50  0001 C CNN
	1    8250 6000
	-1   0    0    1   
$EndComp
$Comp
L power:GND #PWR0112
U 1 1 5D85AC1E
P 8250 6100
F 0 "#PWR0112" H 8250 5850 50  0001 C CNN
F 1 "GND" H 8255 5927 50  0000 C CNN
F 2 "" H 8250 6100 50  0001 C CNN
F 3 "" H 8250 6100 50  0001 C CNN
	1    8250 6100
	1    0    0    -1  
$EndComp
Text GLabel 8025 5750 0    50   BiDi ~ 0
SD_DAT1
Text GLabel 8025 5650 0    50   BiDi ~ 0
SD_DAT0
Text GLabel 8025 5450 0    50   BiDi ~ 0
SD_CLK
Text GLabel 8025 5250 0    50   BiDi ~ 0
SD_CMD
Text GLabel 8025 5150 0    50   BiDi ~ 0
SD_DAT3
Text GLabel 8025 5050 0    50   BiDi ~ 0
SD_DAT2
Wire Wire Line
	1400 2075 1200 2075
Wire Wire Line
	1400 2175 1200 2175
Text GLabel 1200 2175 0    50   BiDi ~ 0
SD_DAT1
Text GLabel 1200 2075 0    50   BiDi ~ 0
SD_DAT0
Text GLabel 1200 2475 0    50   BiDi ~ 0
SD_DAT3
Text GLabel 1200 2375 0    50   BiDi ~ 0
SD_DAT2
Wire Wire Line
	1200 2375 1400 2375
Wire Wire Line
	1200 2475 1400 2475
Wire Wire Line
	1400 2575 1200 2575
Wire Wire Line
	1400 2675 1200 2675
Text GLabel 1200 2675 0    50   BiDi ~ 0
SD_CLK
Text GLabel 1200 2575 0    50   BiDi ~ 0
SD_CMD
$Comp
L Connector:Barrel_Jack J3
U 1 1 5D8FD43C
P 1175 5125
F 0 "J3" H 1232 5450 50  0000 C CNN
F 1 "Barrel_Jack" H 1232 5359 50  0000 C CNN
F 2 "Connector_BarrelJack:BarrelJack_CUI_PJ-063AH_Horizontal" H 1225 5085 50  0001 C CNN
F 3 "~" H 1225 5085 50  0001 C CNN
	1    1175 5125
	1    0    0    -1  
$EndComp
$Comp
L diy-modules:DC-DC-STEP-DOWN-LM2596 M1
U 1 1 5D900867
P 2550 5150
F 0 "M1" H 2550 5704 45  0000 C CNN
F 1 "DC-DC-STEP-DOWN-LM2596" H 2550 5620 45  0000 C CNN
F 2 "diy-modules:diy-modules-DC-DC-STEP-DOWN-LM2596" H 2580 5300 20  0001 C CNN
F 3 "" H 2550 5150 50  0001 C CNN
	1    2550 5150
	1    0    0    -1  
$EndComp
Wire Wire Line
	1475 5025 1675 5025
Wire Wire Line
	1850 5025 1850 4950
Wire Wire Line
	1475 5225 1675 5225
Wire Wire Line
	1850 5225 1850 5350
$Comp
L Regulator_Linear:LM1117-3.3 U2
U 1 1 5D908EC9
P 4025 4950
F 0 "U2" H 4025 5192 50  0000 C CNN
F 1 "LM1117-3.3" H 4025 5101 50  0000 C CNN
F 2 "Package_TO_SOT_SMD:SOT-223" H 4025 4950 50  0001 C CNN
F 3 "http://www.ti.com/lit/ds/symlink/lm1117.pdf" H 4025 4950 50  0001 C CNN
	1    4025 4950
	1    0    0    -1  
$EndComp
Wire Wire Line
	4025 5350 4025 5250
Wire Wire Line
	4325 4950 4350 4950
$Comp
L power:GND #PWR0113
U 1 1 5D913E6C
P 4025 5350
F 0 "#PWR0113" H 4025 5100 50  0001 C CNN
F 1 "GND" H 4030 5177 50  0000 C CNN
F 2 "" H 4025 5350 50  0001 C CNN
F 3 "" H 4025 5350 50  0001 C CNN
	1    4025 5350
	1    0    0    -1  
$EndComp
Connection ~ 4025 5350
$Comp
L power:+3.3V #PWR0114
U 1 1 5D914A56
P 4800 4950
F 0 "#PWR0114" H 4800 4800 50  0001 C CNN
F 1 "+3.3V" V 4815 5078 50  0000 L CNN
F 2 "" H 4800 4950 50  0001 C CNN
F 3 "" H 4800 4950 50  0001 C CNN
	1    4800 4950
	0    1    1    0   
$EndComp
$Comp
L power:+5V #PWR0115
U 1 1 5D9153F3
P 3275 4950
F 0 "#PWR0115" H 3275 4800 50  0001 C CNN
F 1 "+5V" H 3290 5123 50  0000 C CNN
F 2 "" H 3275 4950 50  0001 C CNN
F 3 "" H 3275 4950 50  0001 C CNN
	1    3275 4950
	1    0    0    -1  
$EndComp
Connection ~ 3275 4950
Wire Wire Line
	3275 4950 3250 4950
$Comp
L power:+VDC #PWR0116
U 1 1 5D916F25
P 1675 5025
F 0 "#PWR0116" H 1675 4925 50  0001 C CNN
F 1 "+VDC" H 1675 5300 50  0000 C CNN
F 2 "" H 1675 5025 50  0001 C CNN
F 3 "" H 1675 5025 50  0001 C CNN
	1    1675 5025
	1    0    0    -1  
$EndComp
Connection ~ 1675 5025
Wire Wire Line
	1675 5025 1850 5025
$Comp
L power:-VDC #PWR0117
U 1 1 5D917B47
P 1675 5225
F 0 "#PWR0117" H 1675 5125 50  0001 C CNN
F 1 "-VDC" H 1675 5500 50  0000 C CNN
F 2 "" H 1675 5225 50  0001 C CNN
F 3 "" H 1675 5225 50  0001 C CNN
	1    1675 5225
	-1   0    0    1   
$EndComp
Connection ~ 1675 5225
Wire Wire Line
	1675 5225 1850 5225
Wire Wire Line
	3275 4950 3675 4950
$Comp
L Device:C_Small C12
U 1 1 5D923EDB
P 4650 5050
F 0 "C12" H 4675 5100 50  0000 L CNN
F 1 "C_Small" H 4700 4975 50  0000 L CNN
F 2 "Capacitor_SMD:C_0805_2012Metric" H 4650 5050 50  0001 C CNN
F 3 "~" H 4650 5050 50  0001 C CNN
	1    4650 5050
	1    0    0    -1  
$EndComp
Wire Wire Line
	4650 5150 4650 5350
Wire Wire Line
	4650 5350 4350 5350
Wire Wire Line
	4350 5150 4350 5350
Connection ~ 4350 5350
Wire Wire Line
	4350 5350 4025 5350
Wire Wire Line
	3675 5150 3675 5350
Connection ~ 3675 5350
Wire Wire Line
	3675 5350 4025 5350
Wire Wire Line
	3250 5350 3675 5350
$Comp
L Device:CP1_Small C10
U 1 1 5D939364
P 3675 5050
F 0 "C10" H 3450 5075 50  0000 L CNN
F 1 "CP1_Small" H 3450 5000 50  0000 L CNN
F 2 "Capacitor_SMD:CP_Elec_4x3" H 3675 5050 50  0001 C CNN
F 3 "~" H 3675 5050 50  0001 C CNN
	1    3675 5050
	1    0    0    -1  
$EndComp
Connection ~ 3675 4950
Wire Wire Line
	3675 4950 3725 4950
$Comp
L Device:CP1_Small C11
U 1 1 5D939B8F
P 4350 5050
F 0 "C11" H 4375 5100 50  0000 L CNN
F 1 "CP1_Small" H 4350 4975 50  0000 L CNN
F 2 "Capacitor_SMD:CP_Elec_4x3" H 4350 5050 50  0001 C CNN
F 3 "~" H 4350 5050 50  0001 C CNN
	1    4350 5050
	1    0    0    -1  
$EndComp
Connection ~ 4350 4950
Wire Wire Line
	1400 2775 1200 2775
Wire Wire Line
	1400 2875 1200 2875
Wire Wire Line
	1400 2975 1200 2975
Wire Wire Line
	1400 3075 1200 3075
Wire Wire Line
	1400 3175 1200 3175
Wire Wire Line
	2600 2575 2750 2575
Wire Wire Line
	2600 2675 2750 2675
Wire Wire Line
	2600 2775 2750 2775
Wire Wire Line
	2600 2875 2750 2875
Wire Wire Line
	2600 2975 2750 2975
Wire Wire Line
	2600 3075 2750 3075
Text GLabel 1200 2775 0    50   BiDi ~ 0
1W-4CH-ADC1
Text GLabel 1200 2875 0    50   BiDi ~ 0
1W-4CH-ADC2
Text GLabel 1200 2975 0    50   BiDi ~ 0
1W-4CH-ADC3
Text GLabel 1200 3075 0    50   BiDi ~ 0
1W-8CH-IO1
Text GLabel 1200 3175 0    50   BiDi ~ 0
1W-8CH-IO2
Text GLabel 2750 2575 2    50   BiDi ~ 0
UART_RX
Text GLabel 2750 2675 2    50   BiDi ~ 0
UART_TX
Text GLabel 2750 2775 2    50   BiDi ~ 0
INPUT0
Text GLabel 2750 2875 2    50   BiDi ~ 0
INPUT1
Text GLabel 2750 2975 2    50   Output ~ 0
MIDI-OUT
Text GLabel 2750 3075 2    50   Input ~ 0
MIDI-IN
$Comp
L dk_Rectangular-Connectors-Headers-Male-Pins:0878311420 J4
U 1 1 5D99671B
P 6850 4000
F 0 "J4" H 6850 3485 50  0000 C CNN
F 1 "0878311420" H 6850 3576 50  0000 C CNN
F 2 "digikey-footprints:PinHeader_2x7_P2mm_Drill1mm" H 7050 4200 60  0001 L CNN
F 3 "https://www.molex.com/pdm_docs/sd/878311420_sd.pdf" H 7050 4300 60  0001 L CNN
F 4 "WM17469-ND" H 7050 4400 60  0001 L CNN "Digi-Key_PN"
F 5 "0878311420" H 7050 4500 60  0001 L CNN "MPN"
F 6 "Connectors, Interconnects" H 7050 4600 60  0001 L CNN "Category"
F 7 "Rectangular Connectors - Headers, Male Pins" H 7050 4700 60  0001 L CNN "Family"
F 8 "https://www.molex.com/pdm_docs/sd/878311420_sd.pdf" H 7050 4800 60  0001 L CNN "DK_Datasheet_Link"
F 9 "/product-detail/en/molex/0878311420/WM17469-ND/662449" H 7050 4900 60  0001 L CNN "DK_Detail_Page"
F 10 "CONN HEADER VERT 14POS 2MM" H 7050 5000 60  0001 L CNN "Description"
F 11 "Molex" H 7050 5100 60  0001 L CNN "Manufacturer"
F 12 "Active" H 7050 5200 60  0001 L CNN "Status"
	1    6850 4000
	-1   0    0    1   
$EndComp
Text GLabel 6650 3900 0    50   BiDi ~ 0
1W-4CH-ADC1
Text GLabel 6650 4000 0    50   BiDi ~ 0
1W-4CH-ADC2
Text GLabel 6650 4100 0    50   BiDi ~ 0
1W-4CH-ADC3
Text GLabel 6650 4200 0    50   BiDi ~ 0
1W-8CH-IO1
Text GLabel 6650 4300 0    50   BiDi ~ 0
1W-8CH-IO2
Text GLabel 7050 3800 2    50   BiDi ~ 0
UART_RX
Text GLabel 7050 3900 2    50   BiDi ~ 0
UART_TX
Text GLabel 7050 4000 2    50   BiDi ~ 0
INPUT0
Text GLabel 7050 4100 2    50   BiDi ~ 0
INPUT1
$Comp
L power:+5V #PWR0118
U 1 1 5D9C0EE6
P 6650 3700
F 0 "#PWR0118" H 6650 3550 50  0001 C CNN
F 1 "+5V" V 6665 3828 50  0000 L CNN
F 2 "" H 6650 3700 50  0001 C CNN
F 3 "" H 6650 3700 50  0001 C CNN
	1    6650 3700
	0    -1   -1   0   
$EndComp
$Comp
L power:+3.3V #PWR0119
U 1 1 5D9C16D4
P 6650 3800
F 0 "#PWR0119" H 6650 3650 50  0001 C CNN
F 1 "+3.3V" V 6665 3928 50  0000 L CNN
F 2 "" H 6650 3800 50  0001 C CNN
F 3 "" H 6650 3800 50  0001 C CNN
	1    6650 3800
	0    -1   -1   0   
$EndComp
$Comp
L power:GND #PWR0120
U 1 1 5D9D4BF5
P 7050 3700
F 0 "#PWR0120" H 7050 3450 50  0001 C CNN
F 1 "GND" V 7055 3572 50  0000 R CNN
F 2 "" H 7050 3700 50  0001 C CNN
F 3 "" H 7050 3700 50  0001 C CNN
	1    7050 3700
	0    -1   -1   0   
$EndComp
$Comp
L MAX98357AETE+:MAX98357AETE+ U3
U 1 1 5D9F0810
P 7400 2050
F 0 "U3" H 8675 2600 50  0000 L CNN
F 1 "MAX98357AETE+" H 7925 2200 50  0000 L CNN
F 2 "QFN50P300X300X80-17N" H 8850 2550 50  0001 L CNN
F 3 "https://datasheets.maximintegrated.com/en/ds/MAX98357A-MAX98357B.pdf" H 8850 2450 50  0001 L CNN
F 4 "MAXIM INTEGRATED PRODUCTS - MAX98357AETE+ - AMPLIFIER, CLASS-D, 1-CH, 3.2W, TQFN-16" H 8850 2350 50  0001 L CNN "Description"
F 5 "0.8" H 8850 2250 50  0001 L CNN "Height"
F 6 "Maxim Integrated" H 8850 2150 50  0001 L CNN "Manufacturer_Name"
F 7 "MAX98357AETE+" H 8850 2050 50  0001 L CNN "Manufacturer_Part_Number"
F 8 "700-MAX98357AETE+" H 8850 1950 50  0001 L CNN "Mouser Part Number"
F 9 "https://www.mouser.com/Search/Refine.aspx?Keyword=700-MAX98357AETE%2B" H 8850 1850 50  0001 L CNN "Mouser Price/Stock"
F 10 "" H 8850 1750 50  0001 L CNN "RS Part Number"
F 11 "" H 8850 1650 50  0001 L CNN "RS Price/Stock"
	1    7400 2050
	1    0    0    -1  
$EndComp
Wire Wire Line
	7400 2050 7050 2050
Wire Wire Line
	8300 1350 8300 1200
Wire Wire Line
	8100 1200 8100 1350
Text GLabel 8300 1200 1    50   Output ~ 0
LRC
Text GLabel 8100 1200 1    50   Input ~ 0
BCLK
Text GLabel 7050 2050 0    50   Input ~ 0
DOUT
Wire Wire Line
	8200 3050 8250 3050
Connection ~ 8250 3050
Wire Wire Line
	8250 3050 8300 3050
Wire Wire Line
	8200 1350 8200 925 
Wire Wire Line
	8200 925  8000 925 
Wire Wire Line
	8000 925  8000 1350
Wire Wire Line
	6975 2250 6975 925 
Wire Wire Line
	6975 925  8000 925 
Connection ~ 8000 925 
$Comp
L power:GND #PWR0122
U 1 1 5D9F082C
P 6975 2250
F 0 "#PWR0122" H 6975 2000 50  0001 C CNN
F 1 "GND" H 6980 2077 50  0000 C CNN
F 2 "" H 6975 2250 50  0001 C CNN
F 3 "" H 6975 2250 50  0001 C CNN
	1    6975 2250
	1    0    0    -1  
$EndComp
Connection ~ 6975 2250
Wire Wire Line
	9600 2350 9600 2525
Wire Wire Line
	9450 2250 9450 2525
Wire Wire Line
	9450 2250 9675 2250
$Comp
L Device:C_Small C16
U 1 1 5D9F0837
P 9600 2625
F 0 "C16" H 9675 2625 50  0000 L CNN
F 1 "C_Small" H 9600 2550 50  0000 L CNN
F 2 "Capacitor_SMD:C_0805_2012Metric" H 9600 2625 50  0001 C CNN
F 3 "~" H 9600 2625 50  0001 C CNN
	1    9600 2625
	1    0    0    -1  
$EndComp
$Comp
L Device:C_Small C15
U 1 1 5D9F083D
P 9450 2625
F 0 "C15" H 9225 2625 50  0000 L CNN
F 1 "C_Small" H 9150 2550 50  0000 L CNN
F 2 "Capacitor_SMD:C_0805_2012Metric" H 9450 2625 50  0001 C CNN
F 3 "~" H 9450 2625 50  0001 C CNN
	1    9450 2625
	1    0    0    -1  
$EndComp
Wire Wire Line
	9600 2725 9525 2725
Wire Wire Line
	9525 2725 9525 2825
Connection ~ 9525 2725
Wire Wire Line
	9525 2725 9450 2725
$Comp
L power:GND #PWR0123
U 1 1 5D9F0847
P 9525 2825
F 0 "#PWR0123" H 9525 2575 50  0001 C CNN
F 1 "GND" H 9530 2652 50  0000 C CNN
F 2 "" H 9525 2825 50  0001 C CNN
F 3 "" H 9525 2825 50  0001 C CNN
	1    9525 2825
	1    0    0    -1  
$EndComp
Wire Wire Line
	9225 2150 9000 2150
Wire Wire Line
	8200 925  9225 925 
Connection ~ 8200 925 
$Comp
L SynthesizESP-rescue:FERRITE-Adafruit_MAX98357_Breakout-eagle-import FB3
U 1 1 5D9F0854
P 9225 2250
F 0 "FB3" H 9225 2325 42  0000 C CNN
F 1 "FERRITE" H 9225 2375 42  0000 C CNN
F 2 "Adafruit MAX98357 Breakout:0805-NO" H 9225 2250 50  0001 C CNN
F 3 "" H 9225 2250 50  0001 C CNN
	1    9225 2250
	1    0    0    -1  
$EndComp
$Comp
L SynthesizESP-rescue:FERRITE-Adafruit_MAX98357_Breakout-eagle-import FB4
U 1 1 5D9F085A
P 9225 2350
F 0 "FB4" H 9225 2275 42  0000 C CNN
F 1 "FERRITE" H 9225 2200 42  0000 C CNN
F 2 "Adafruit MAX98357 Breakout:0805-NO" H 9225 2350 50  0001 C CNN
F 3 "" H 9225 2350 50  0001 C CNN
	1    9225 2350
	1    0    0    -1  
$EndComp
Wire Wire Line
	9450 2250 9325 2250
Connection ~ 9450 2250
Wire Wire Line
	9600 2350 9325 2350
Connection ~ 9600 2350
Wire Wire Line
	9125 2350 9000 2350
Wire Wire Line
	9125 2250 9000 2250
$Comp
L Device:C_Small C13
U 1 1 5D9F0866
P 8450 3125
F 0 "C13" V 8575 3050 50  0000 L CNN
F 1 "C_Small" V 8375 3000 50  0000 L CNN
F 2 "Capacitor_SMD:C_0805_2012Metric" H 8450 3125 50  0001 C CNN
F 3 "~" H 8450 3125 50  0001 C CNN
	1    8450 3125
	0    -1   -1   0   
$EndComp
$Comp
L Device:C_Small C14
U 1 1 5D9F086C
P 8450 3375
F 0 "C14" V 8325 3325 50  0000 L CNN
F 1 "C_Small" V 8525 3250 50  0000 L CNN
F 2 "Capacitor_SMD:C_0805_2012Metric" H 8450 3375 50  0001 C CNN
F 3 "~" H 8450 3375 50  0001 C CNN
	1    8450 3375
	0    -1   -1   0   
$EndComp
Wire Wire Line
	8550 3125 8550 3250
Wire Wire Line
	8550 3250 8675 3250
Wire Wire Line
	8675 3250 8675 3325
$Comp
L power:GND #PWR0124
U 1 1 5D9F0877
P 8675 3325
F 0 "#PWR0124" H 8675 3075 50  0001 C CNN
F 1 "GND" H 8680 3152 50  0000 C CNN
F 2 "" H 8675 3325 50  0001 C CNN
F 3 "" H 8675 3325 50  0001 C CNN
	1    8675 3325
	1    0    0    -1  
$EndComp
Wire Wire Line
	8350 3375 8250 3375
Connection ~ 8250 3375
Wire Wire Line
	8250 3375 8250 3400
Wire Wire Line
	7150 2575 7400 2575
Text GLabel 7150 2575 0    50   Input ~ 0
SD-MODE-R
Wire Wire Line
	7400 2150 7275 2150
$Comp
L Device:R_Small_US R13
U 1 1 5D9F0891
P 7175 2150
F 0 "R13" V 7100 2150 50  0000 C CNN
F 1 "100K" V 7250 2150 50  0000 C CNN
F 2 "Resistor_SMD:R_0805_2012Metric" H 7175 2150 50  0001 C CNN
F 3 "~" H 7175 2150 50  0001 C CNN
	1    7175 2150
	0    1    1    0   
$EndComp
Wire Wire Line
	7075 2150 6850 2150
Wire Wire Line
	7400 2350 7400 2575
$Comp
L dk_Transistors-Bipolar-BJT-Arrays:MBT3904DW1T1G Q1
U 1 1 5DAB1049
P 5800 6500
F 0 "Q1" H 6128 6553 60  0000 L CNN
F 1 "MBT3904DW1T1G" H 6128 6447 60  0000 L CNN
F 2 "digikey-footprints:SOT-363" H 6000 6700 60  0001 L CNN
F 3 "http://www.onsemi.com/pub/Collateral/MBT3904DW1T1-D.PDF" H 6000 6800 60  0001 L CNN
F 4 "MBT3904DW1T1GOSCT-ND" H 6000 6900 60  0001 L CNN "Digi-Key_PN"
F 5 "MBT3904DW1T1G" H 6000 7000 60  0001 L CNN "MPN"
F 6 "Discrete Semiconductor Products" H 6000 7100 60  0001 L CNN "Category"
F 7 "Transistors - Bipolar (BJT) - Arrays" H 6000 7200 60  0001 L CNN "Family"
F 8 "http://www.onsemi.com/pub/Collateral/MBT3904DW1T1-D.PDF" H 6000 7300 60  0001 L CNN "DK_Datasheet_Link"
F 9 "/product-detail/en/on-semiconductor/MBT3904DW1T1G/MBT3904DW1T1GOSCT-ND/918012" H 6000 7400 60  0001 L CNN "DK_Detail_Page"
F 10 "TRANS 2NPN 40V 0.2A SC88" H 6000 7500 60  0001 L CNN "Description"
F 11 "ON Semiconductor" H 6000 7600 60  0001 L CNN "Manufacturer"
F 12 "Active" H 6000 7700 60  0001 L CNN "Status"
	1    5800 6500
	1    0    0    -1  
$EndComp
$Comp
L Device:R_Small_US R12
U 1 1 5DAB1D8F
P 6000 7525
F 0 "R12" V 6075 7525 50  0000 C CNN
F 1 "22K" V 5925 7525 50  0000 C CNN
F 2 "Resistor_SMD:R_0402_1005Metric" H 6000 7525 50  0001 C CNN
F 3 "~" H 6000 7525 50  0001 C CNN
	1    6000 7525
	-1   0    0    1   
$EndComp
$Comp
L Device:R_Small_US R2
U 1 1 5DAB2EFA
P 5600 5675
F 0 "R2" V 5675 5675 50  0000 C CNN
F 1 "220K" V 5550 5675 50  0000 C CNN
F 2 "Resistor_SMD:R_0402_1005Metric" H 5600 5675 50  0001 C CNN
F 3 "~" H 5600 5675 50  0001 C CNN
	1    5600 5675
	-1   0    0    1   
$EndComp
$Comp
L Device:R_Small_US R11
U 1 1 5DAB360B
P 5800 5675
F 0 "R11" V 5850 5675 50  0000 C CNN
F 1 "2.2K" V 5725 5675 50  0000 C CNN
F 2 "Resistor_SMD:R_0402_1005Metric" H 5800 5675 50  0001 C CNN
F 3 "~" H 5800 5675 50  0001 C CNN
	1    5800 5675
	-1   0    0    1   
$EndComp
Wire Wire Line
	5800 6100 5800 5900
Wire Wire Line
	5800 6900 5800 7325
Wire Wire Line
	5800 7325 5375 7325
Wire Wire Line
	5375 7325 5375 5900
Connection ~ 5800 5900
Wire Wire Line
	5800 5900 5800 5775
Wire Wire Line
	5800 5575 5800 5450
Text GLabel 5800 5450 1    50   Input ~ 0
AMP_OFF
Wire Wire Line
	6000 6100 6225 6100
Wire Wire Line
	6225 6100 6225 7100
Wire Wire Line
	6225 7100 5500 7100
Wire Wire Line
	5500 7100 5500 6900
Connection ~ 6225 7100
$Comp
L power:GND #PWR0126
U 1 1 5DB0801A
P 6225 7175
F 0 "#PWR0126" H 6225 6925 50  0001 C CNN
F 1 "GND" H 6230 7002 50  0000 C CNN
F 2 "" H 6225 7175 50  0001 C CNN
F 3 "" H 6225 7175 50  0001 C CNN
	1    6225 7175
	1    0    0    -1  
$EndComp
Wire Wire Line
	6225 7100 6225 7175
Wire Wire Line
	5600 6100 5600 5825
Wire Wire Line
	6000 6900 6000 7425
Wire Wire Line
	6000 7425 6200 7425
Connection ~ 6000 7425
Wire Wire Line
	6000 7625 5300 7625
Wire Wire Line
	4800 4950 4650 4950
Connection ~ 5600 5575
$Comp
L power:+3.3V #PWR0127
U 1 1 5DB65158
P 5600 5450
F 0 "#PWR0127" H 5600 5300 50  0001 C CNN
F 1 "+3.3V" H 5615 5623 50  0000 C CNN
F 2 "" H 5600 5450 50  0001 C CNN
F 3 "" H 5600 5450 50  0001 C CNN
	1    5600 5450
	1    0    0    -1  
$EndComp
Wire Wire Line
	5600 5450 5600 5575
Wire Wire Line
	5300 5575 5300 7625
Wire Wire Line
	5375 5900 5800 5900
Wire Wire Line
	5300 5575 5600 5575
Text GLabel 6200 7425 2    50   Output ~ 0
SD-MODE-L
Wire Wire Line
	5600 5825 6000 5825
Connection ~ 5600 5825
Wire Wire Line
	5600 5825 5600 5775
Text GLabel 6000 5825 2    50   Output ~ 0
SD-MODE-R
Wire Wire Line
	6975 2250 7400 2250
Wire Wire Line
	8350 3125 8250 3125
Wire Wire Line
	8250 3050 8250 3125
Connection ~ 8250 3125
Wire Wire Line
	8250 3125 8250 3375
Connection ~ 8550 3250
Wire Wire Line
	8550 3250 8550 3375
Wire Wire Line
	4650 3175 4650 3300
Wire Wire Line
	3800 2600 3800 2425
Wire Wire Line
	9600 2350 9675 2350
Wire Wire Line
	9225 925  9225 2150
Wire Wire Line
	5850 2325 6075 2325
Wire Wire Line
	9875 3950 9800 3950
Wire Wire Line
	9875 4050 9800 4050
Wire Wire Line
	5625 1000 5625 2225
$Comp
L SJ-3524-SMT-TR-GR:SJ-3524-SMT-TR-GR J1
U 1 1 5DDD213D
P 10825 3850
F 0 "J1" H 11550 4175 50  0000 R CNN
F 1 "SJ-3524-SMT-TR-GR" H 11850 3500 50  0000 R CNN
F 2 "SJ3524SMTTRGR" H 12175 3950 50  0001 L CNN
F 3 "https://componentsearchengine.com/Datasheets/1/SJ-3524-SMT-TR-GR.pdf" H 12175 3850 50  0001 L CNN
F 4 "CONN JACK STEREO 3.5MM SMD R/A" H 12175 3750 50  0001 L CNN "Description"
F 5 "5" H 12175 3650 50  0001 L CNN "Height"
F 6 "CUI" H 12175 3550 50  0001 L CNN "Manufacturer_Name"
F 7 "SJ-3524-SMT-TR-GR" H 12175 3450 50  0001 L CNN "Manufacturer_Part_Number"
F 8 "490-SJ3524-SMT-TR-GR" H 12175 3350 50  0001 L CNN "Mouser Part Number"
F 9 "https://www.mouser.com/Search/Refine.aspx?Keyword=490-SJ3524-SMT-TR-GR" H 12175 3250 50  0001 L CNN "Mouser Price/Stock"
F 10 "" H 12175 3150 50  0001 L CNN "RS Part Number"
F 11 "" H 12175 3050 50  0001 L CNN "RS Price/Stock"
	1    10825 3850
	-1   0    0    1   
$EndComp
Wire Wire Line
	9875 3750 9800 3750
$Comp
L power:+5V #PWR0101
U 1 1 5DE7391C
P 4650 3400
F 0 "#PWR0101" H 4650 3250 50  0001 C CNN
F 1 "+5V" H 4665 3573 50  0000 C CNN
F 2 "" H 4650 3400 50  0001 C CNN
F 3 "" H 4650 3400 50  0001 C CNN
	1    4650 3400
	-1   0    0    1   
$EndComp
$Comp
L power:+5V #PWR0121
U 1 1 5DE76BC8
P 8250 3400
F 0 "#PWR0121" H 8250 3250 50  0001 C CNN
F 1 "+5V" H 8265 3573 50  0000 C CNN
F 2 "" H 8250 3400 50  0001 C CNN
F 3 "" H 8250 3400 50  0001 C CNN
	1    8250 3400
	-1   0    0    1   
$EndComp
$Sheet
S 5925 3225 1725 1600
U 5DECDFAC
F0 "UI_Board" 50
F1 "UI_Board.sch" 50
$EndSheet
$Comp
L dk_Optoisolators-Logic-Output:H11L1M U4
U 1 1 5E695863
P 2400 6275
F 0 "U4" H 2450 6375 60  0000 L CNN
F 1 "H11L1M" H 2575 6100 60  0000 L CNN
F 2 "digikey-footprints:DIP-6_W7.62mm" H 2600 6475 60  0001 L CNN
F 3 "http://www.onsemi.com/pub/Collateral/H11L3M-D.pdf" H 2600 6575 60  0001 L CNN
F 4 "H11L1-MQT-ND" H 2600 6675 60  0001 L CNN "Digi-Key_PN"
F 5 "H11L1M" H 2600 6775 60  0001 L CNN "MPN"
F 6 "Isolators" H 2600 6875 60  0001 L CNN "Category"
F 7 "Optoisolators - Logic Output" H 2600 6975 60  0001 L CNN "Family"
F 8 "http://www.onsemi.com/pub/Collateral/H11L3M-D.pdf" H 2600 7075 60  0001 L CNN "DK_Datasheet_Link"
F 9 "/product-detail/en/on-semiconductor/H11L1M/H11L1-MQT-ND/284866" H 2600 7175 60  0001 L CNN "DK_Detail_Page"
F 10 "OPTOISO 4.17KV OPN COLL 6DIP" H 2600 7275 60  0001 L CNN "Description"
F 11 "ON Semiconductor" H 2600 7375 60  0001 L CNN "Manufacturer"
F 12 "Active" H 2600 7475 60  0001 L CNN "Status"
	1    2400 6275
	1    0    0    -1  
$EndComp
$Comp
L Connector:DIN-5_180degree J6
U 1 1 5E6AE0DC
P 1275 6400
F 0 "J6" H 1275 6125 50  0000 C CNN
F 1 "DIN-5_180degree" H 1275 6034 50  0000 C CNN
F 2 "57PC5F:57PC5F" H 1275 6400 50  0001 C CNN
F 3 "http://www.mouser.com/ds/2/18/40_c091_abd_e-75918.pdf" H 1275 6400 50  0001 C CNN
	1    1275 6400
	1    0    0    -1  
$EndComp
Wire Wire Line
	1575 6300 1725 6300
Wire Wire Line
	1725 6300 1725 6175
Wire Wire Line
	975  6300 825  6300
Wire Wire Line
	825  6300 825  6825
Wire Wire Line
	825  6825 1925 6825
Wire Wire Line
	1925 6825 1925 6375
Wire Wire Line
	1925 6375 2050 6375
Wire Wire Line
	2700 6275 2850 6275
Wire Wire Line
	2400 6575 2400 6625
Wire Wire Line
	2400 5975 2400 5875
$Comp
L power:GND #PWR0160
U 1 1 5E6F0548
P 2400 6700
F 0 "#PWR0160" H 2400 6450 50  0001 C CNN
F 1 "GND" H 2405 6527 50  0000 C CNN
F 2 "" H 2400 6700 50  0001 C CNN
F 3 "" H 2400 6700 50  0001 C CNN
	1    2400 6700
	1    0    0    -1  
$EndComp
$Comp
L power:+5V #PWR0161
U 1 1 5E6F27BD
P 2400 5875
F 0 "#PWR0161" H 2400 5725 50  0001 C CNN
F 1 "+5V" H 2415 6048 50  0000 C CNN
F 2 "" H 2400 5875 50  0001 C CNN
F 3 "" H 2400 5875 50  0001 C CNN
	1    2400 5875
	1    0    0    -1  
$EndComp
$Comp
L power:+3V3 #PWR0162
U 1 1 5E70192E
P 2850 5875
F 0 "#PWR0162" H 2850 5725 50  0001 C CNN
F 1 "+3V3" H 2865 6048 50  0000 C CNN
F 2 "" H 2850 5875 50  0001 C CNN
F 3 "" H 2850 5875 50  0001 C CNN
	1    2850 5875
	1    0    0    -1  
$EndComp
$Comp
L Device:R_Small_US R71
U 1 1 5E7133A7
P 2850 6050
F 0 "R71" V 2925 6050 50  0000 C CNN
F 1 "2K" V 2775 6050 50  0000 C CNN
F 2 "Resistor_SMD:R_0402_1005Metric" H 2850 6050 50  0001 C CNN
F 3 "~" H 2850 6050 50  0001 C CNN
	1    2850 6050
	-1   0    0    1   
$EndComp
Wire Wire Line
	2850 5875 2850 5950
Wire Wire Line
	2850 6150 2850 6275
Connection ~ 2850 6275
Wire Wire Line
	2850 6275 3125 6275
$Comp
L Device:R_Small_US R68
U 1 1 5E7333B6
P 1900 6175
F 0 "R68" V 1975 6175 50  0000 C CNN
F 1 "220" V 1825 6175 50  0000 C CNN
F 2 "Resistor_THT:R_Axial_DIN0204_L3.6mm_D1.6mm_P7.62mm_Horizontal" H 1900 6175 50  0001 C CNN
F 3 "~" H 1900 6175 50  0001 C CNN
	1    1900 6175
	0    -1   -1   0   
$EndComp
Wire Wire Line
	2000 6175 2050 6175
Wire Wire Line
	1725 6175 1800 6175
Text GLabel 3075 6975 2    50   Input ~ 0
MIDI-OUT
Text GLabel 3125 6275 2    50   Output ~ 0
MIDI-IN
$Comp
L Device:D_Small_ALT D19
U 1 1 5E790E3E
P 2050 6275
F 0 "D19" V 1900 6200 50  0000 L CNN
F 1 "1N914" V 2200 6150 50  0000 L CNN
F 2 "Diode_SMD:D_1206_3216Metric" V 2050 6275 50  0001 C CNN
F 3 "~" V 2050 6275 50  0001 C CNN
	1    2050 6275
	0    1    1    0   
$EndComp
Connection ~ 2050 6175
Wire Wire Line
	2050 6175 2100 6175
Connection ~ 2050 6375
Wire Wire Line
	2050 6375 2100 6375
$Comp
L Connector:DIN-5_180degree J7
U 1 1 5E797ABE
P 1275 7325
F 0 "J7" H 1275 7050 50  0000 C CNN
F 1 "DIN-5_180degree" H 1275 6959 50  0000 C CNN
F 2 "57PC5F:57PC5F" H 1275 7325 50  0001 C CNN
F 3 "http://www.mouser.com/ds/2/18/40_c091_abd_e-75918.pdf" H 1275 7325 50  0001 C CNN
	1    1275 7325
	1    0    0    -1  
$EndComp
Wire Wire Line
	1575 7225 1875 7225
Wire Wire Line
	975  7225 975  6975
Wire Wire Line
	975  6975 1875 6975
$Comp
L Device:R_Small_US R69
U 1 1 5E7B60EA
P 1975 6975
F 0 "R69" V 2050 6975 50  0000 C CNN
F 1 "220" V 1900 6975 50  0000 C CNN
F 2 "Resistor_THT:R_Axial_DIN0204_L3.6mm_D1.6mm_P7.62mm_Horizontal" H 1975 6975 50  0001 C CNN
F 3 "~" H 1975 6975 50  0001 C CNN
	1    1975 6975
	0    -1   -1   0   
$EndComp
$Comp
L Device:R_Small_US R70
U 1 1 5E7B6633
P 1975 7225
F 0 "R70" V 2050 7225 50  0000 C CNN
F 1 "220" V 1900 7225 50  0000 C CNN
F 2 "Resistor_THT:R_Axial_DIN0204_L3.6mm_D1.6mm_P7.62mm_Horizontal" H 1975 7225 50  0001 C CNN
F 3 "~" H 1975 7225 50  0001 C CNN
	1    1975 7225
	0    -1   -1   0   
$EndComp
$Comp
L SynthesizESP-rescue:74LVC1G07 U5
U 1 1 5E7CDC9D
P 2650 6975
F 0 "U5" H 2500 6850 50  0000 R CNN
F 1 "74LVC1G07" H 2525 7125 50  0000 R CNN
F 2 "Package_TO_SOT_SMD:SOT-553" H 2650 6975 50  0001 C CNN
F 3 "http://www.ti.com/lit/sg/scyt129e/scyt129e.pdf" H 2650 6975 50  0001 C CNN
	1    2650 6975
	-1   0    0    1   
$EndComp
Wire Wire Line
	3075 6975 2950 6975
Wire Wire Line
	2650 6625 2400 6625
Connection ~ 2400 6625
Wire Wire Line
	2400 6625 2400 6700
Wire Wire Line
	2650 7325 2650 7375
$Comp
L power:+5V #PWR0163
U 1 1 5E840161
P 2650 7375
F 0 "#PWR0163" H 2650 7225 50  0001 C CNN
F 1 "+5V" H 2665 7548 50  0000 C CNN
F 2 "" H 2650 7375 50  0001 C CNN
F 3 "" H 2650 7375 50  0001 C CNN
	1    2650 7375
	-1   0    0    1   
$EndComp
$Comp
L power:+5V #PWR0164
U 1 1 5E8771D1
P 2275 7225
F 0 "#PWR0164" H 2275 7075 50  0001 C CNN
F 1 "+5V" V 2290 7353 50  0000 L CNN
F 2 "" H 2275 7225 50  0001 C CNN
F 3 "" H 2275 7225 50  0001 C CNN
	1    2275 7225
	0    1    1    0   
$EndComp
Wire Wire Line
	2275 7225 2075 7225
Wire Wire Line
	2075 6975 2400 6975
Text GLabel 7050 4200 2    50   Output ~ 0
MIDI-OUT
Text GLabel 7050 4300 2    50   Input ~ 0
MIDI-IN
$Comp
L power:+5V #PWR?
U 1 1 5EA8B420
P 3200 2325
F 0 "#PWR?" H 3200 2175 50  0001 C CNN
F 1 "+5V" H 3215 2498 50  0000 C CNN
F 2 "" H 3200 2325 50  0001 C CNN
F 3 "" H 3200 2325 50  0001 C CNN
	1    3200 2325
	-1   0    0    1   
$EndComp
$Comp
L power:+5V #PWR?
U 1 1 5EA8FFE8
P 6850 2150
F 0 "#PWR?" H 6850 2000 50  0001 C CNN
F 1 "+5V" H 6865 2323 50  0000 C CNN
F 2 "" H 6850 2150 50  0001 C CNN
F 3 "" H 6850 2150 50  0001 C CNN
	1    6850 2150
	0    -1   -1   0   
$EndComp
Connection ~ 2600 1175
Wire Wire Line
	2600 1175 2600 1025
Wire Wire Line
	2600 1175 2600 1375
Wire Wire Line
	5925 2800 6000 2800
Text GLabel 6075 2325 2    50   Output ~ 0
AUDIO(-)
Text GLabel 6075 2425 2    50   Output ~ 0
AUDIO_L(+)
Text GLabel 9675 2250 2    50   Output ~ 0
AUDIO(-)
Text GLabel 9675 2350 2    50   Output ~ 0
AUDIO_R(+)
Text GLabel 9800 3750 0    50   Input ~ 0
AUDIO_L(+)
Text GLabel 9800 4050 0    50   Input ~ 0
AUDIO(-)
Text GLabel 9800 3950 0    50   Input ~ 0
AUDIO_R(+)
Wire Wire Line
	8575 4750 8400 4750
Wire Wire Line
	8400 4750 8400 4650
Connection ~ 4650 4950
Wire Wire Line
	4350 4950 4650 4950
$EndSCHEMATC
