EESchema Schematic File Version 4
LIBS:SynthesizESP-cache
EELAYER 30 0
EELAYER END
$Descr A4 11693 8268
encoding utf-8
Sheet 2 2
Title ""
Date ""
Rev ""
Comp ""
Comment1 ""
Comment2 ""
Comment3 ""
Comment4 ""
$EndDescr
$Comp
L dk_Rectangular-Connectors-Headers-Male-Pins:0878311420 J?
U 1 1 5DED10A3
P 2150 1075
AR Path="/5DED10A3" Ref="J?"  Part="1" 
AR Path="/5DECDFAC/5DED10A3" Ref="J5"  Part="1" 
F 0 "J5" H 2150 560 50  0000 C CNN
F 1 "0878311420" H 2150 651 50  0000 C CNN
F 2 "digikey-footprints:PinHeader_2x7_P2mm_Drill1mm" H 2350 1275 60  0001 L CNN
F 3 "https://www.molex.com/pdm_docs/sd/878311420_sd.pdf" H 2350 1375 60  0001 L CNN
F 4 "WM17469-ND" H 2350 1475 60  0001 L CNN "Digi-Key_PN"
F 5 "0878311420" H 2350 1575 60  0001 L CNN "MPN"
F 6 "Connectors, Interconnects" H 2350 1675 60  0001 L CNN "Category"
F 7 "Rectangular Connectors - Headers, Male Pins" H 2350 1775 60  0001 L CNN "Family"
F 8 "https://www.molex.com/pdm_docs/sd/878311420_sd.pdf" H 2350 1875 60  0001 L CNN "DK_Datasheet_Link"
F 9 "/product-detail/en/molex/0878311420/WM17469-ND/662449" H 2350 1975 60  0001 L CNN "DK_Detail_Page"
F 10 "CONN HEADER VERT 14POS 2MM" H 2350 2075 60  0001 L CNN "Description"
F 11 "Molex" H 2350 2175 60  0001 L CNN "Manufacturer"
F 12 "Active" H 2350 2275 60  0001 L CNN "Status"
	1    2150 1075
	-1   0    0    1   
$EndComp
Text GLabel 1150 975  0    50   BiDi ~ 0
1W-4CH-ADC1
Text GLabel 1150 1075 0    50   BiDi ~ 0
1W-4CH-ADC2
Text GLabel 1150 1175 0    50   BiDi ~ 0
1W-4CH-ADC3
Text GLabel 1150 1275 0    50   BiDi ~ 0
1W-8CH-IO1
Text GLabel 1150 1375 0    50   BiDi ~ 0
1W-8CH-IO2
Text GLabel 2350 875  2    50   BiDi ~ 0
UART_RX
Text GLabel 2350 975  2    50   BiDi ~ 0
UART_TX
Text GLabel 2900 1075 2    50   BiDi ~ 0
INPUT0
Text GLabel 2900 1175 2    50   BiDi ~ 0
INPUT1
$Comp
L power:+5V #PWR?
U 1 1 5DED10B4
P 1950 775
AR Path="/5DED10B4" Ref="#PWR?"  Part="1" 
AR Path="/5DECDFAC/5DED10B4" Ref="#PWR0128"  Part="1" 
F 0 "#PWR0128" H 1950 625 50  0001 C CNN
F 1 "+5V" V 1965 903 50  0000 L CNN
F 2 "" H 1950 775 50  0001 C CNN
F 3 "" H 1950 775 50  0001 C CNN
	1    1950 775 
	0    -1   -1   0   
$EndComp
$Comp
L power:+3.3V #PWR?
U 1 1 5DED10BA
P 1950 875
AR Path="/5DED10BA" Ref="#PWR?"  Part="1" 
AR Path="/5DECDFAC/5DED10BA" Ref="#PWR0129"  Part="1" 
F 0 "#PWR0129" H 1950 725 50  0001 C CNN
F 1 "+3.3V" V 1965 1003 50  0000 L CNN
F 2 "" H 1950 875 50  0001 C CNN
F 3 "" H 1950 875 50  0001 C CNN
	1    1950 875 
	0    -1   -1   0   
$EndComp
$Comp
L power:GND #PWR?
U 1 1 5DED10C0
P 2350 775
AR Path="/5DED10C0" Ref="#PWR?"  Part="1" 
AR Path="/5DECDFAC/5DED10C0" Ref="#PWR0130"  Part="1" 
F 0 "#PWR0130" H 2350 525 50  0001 C CNN
F 1 "GND" V 2355 647 50  0000 R CNN
F 2 "" H 2350 775 50  0001 C CNN
F 3 "" H 2350 775 50  0001 C CNN
	1    2350 775 
	0    -1   -1   0   
$EndComp
$Comp
L DS2450S+:DS2450S+ IC4
U 1 1 5DF5040F
P 9525 1175
F 0 "IC4" H 10125 1440 50  0000 C CNN
F 1 "DS2450S+" H 10125 1349 50  0000 C CNN
F 2 "SOIC127P787X213-8N" H 10575 1275 50  0001 L CNN
F 3 "https://datasheets.maximintegrated.com/en/ds/DS2450.pdf" H 10575 1175 50  0001 L CNN
F 4 "1-Wire Quad A/D Converter" H 10575 1075 50  0001 L CNN "Description"
F 5 "2.13" H 10575 975 50  0001 L CNN "Height"
F 6 "Maxim Integrated" H 10575 875 50  0001 L CNN "Manufacturer_Name"
F 7 "DS2450S+" H 10575 775 50  0001 L CNN "Manufacturer_Part_Number"
F 8 "700-DS2450S" H 10575 675 50  0001 L CNN "Mouser Part Number"
F 9 "https://www.mouser.com/Search/Refine.aspx?Keyword=700-DS2450S" H 10575 575 50  0001 L CNN "Mouser Price/Stock"
F 10 "7327557P" H 10575 475 50  0001 L CNN "RS Part Number"
F 11 "http://uk.rs-online.com/web/p/products/7327557P" H 10575 375 50  0001 L CNN "RS Price/Stock"
	1    9525 1175
	1    0    0    -1  
$EndComp
$Comp
L DS2450S+:DS2450S+ IC5
U 1 1 5DF5118D
P 9525 2200
F 0 "IC5" H 10125 2465 50  0000 C CNN
F 1 "DS2450S+" H 10125 2374 50  0000 C CNN
F 2 "SOIC127P787X213-8N" H 10575 2300 50  0001 L CNN
F 3 "https://datasheets.maximintegrated.com/en/ds/DS2450.pdf" H 10575 2200 50  0001 L CNN
F 4 "1-Wire Quad A/D Converter" H 10575 2100 50  0001 L CNN "Description"
F 5 "2.13" H 10575 2000 50  0001 L CNN "Height"
F 6 "Maxim Integrated" H 10575 1900 50  0001 L CNN "Manufacturer_Name"
F 7 "DS2450S+" H 10575 1800 50  0001 L CNN "Manufacturer_Part_Number"
F 8 "700-DS2450S" H 10575 1700 50  0001 L CNN "Mouser Part Number"
F 9 "https://www.mouser.com/Search/Refine.aspx?Keyword=700-DS2450S" H 10575 1600 50  0001 L CNN "Mouser Price/Stock"
F 10 "7327557P" H 10575 1500 50  0001 L CNN "RS Part Number"
F 11 "http://uk.rs-online.com/web/p/products/7327557P" H 10575 1400 50  0001 L CNN "RS Price/Stock"
	1    9525 2200
	1    0    0    -1  
$EndComp
$Comp
L DS2450S+:DS2450S+ IC3
U 1 1 5DF517ED
P 9500 3250
F 0 "IC3" H 10100 3515 50  0000 C CNN
F 1 "DS2450S+" H 10100 3424 50  0000 C CNN
F 2 "SOIC127P787X213-8N" H 10550 3350 50  0001 L CNN
F 3 "https://datasheets.maximintegrated.com/en/ds/DS2450.pdf" H 10550 3250 50  0001 L CNN
F 4 "1-Wire Quad A/D Converter" H 10550 3150 50  0001 L CNN "Description"
F 5 "2.13" H 10550 3050 50  0001 L CNN "Height"
F 6 "Maxim Integrated" H 10550 2950 50  0001 L CNN "Manufacturer_Name"
F 7 "DS2450S+" H 10550 2850 50  0001 L CNN "Manufacturer_Part_Number"
F 8 "700-DS2450S" H 10550 2750 50  0001 L CNN "Mouser Part Number"
F 9 "https://www.mouser.com/Search/Refine.aspx?Keyword=700-DS2450S" H 10550 2650 50  0001 L CNN "Mouser Price/Stock"
F 10 "7327557P" H 10550 2550 50  0001 L CNN "RS Part Number"
F 11 "http://uk.rs-online.com/web/p/products/7327557P" H 10550 2450 50  0001 L CNN "RS Price/Stock"
	1    9500 3250
	1    0    0    -1  
$EndComp
Wire Wire Line
	2900 1075 2650 1075
Wire Wire Line
	2350 1175 2575 1175
Wire Wire Line
	2575 1525 2575 1175
Connection ~ 2575 1175
Wire Wire Line
	2575 1175 2900 1175
Wire Wire Line
	2650 1075 2650 1525
Connection ~ 2650 1075
Wire Wire Line
	2650 1075 2350 1075
Wire Wire Line
	1950 1375 1825 1375
Wire Wire Line
	1825 1375 1825 1525
Connection ~ 1825 1375
Wire Wire Line
	1825 1375 1150 1375
Wire Wire Line
	1750 1275 1750 1525
Wire Wire Line
	1675 1525 1675 1175
Wire Wire Line
	1675 1175 1950 1175
Wire Wire Line
	1950 1275 1750 1275
Wire Wire Line
	1950 1075 1600 1075
Wire Wire Line
	1600 1075 1600 1525
Wire Wire Line
	1950 975  1525 975 
Wire Wire Line
	1525 975  1525 1525
Wire Wire Line
	1150 975  1525 975 
Connection ~ 1525 975 
Wire Wire Line
	1150 1075 1600 1075
Connection ~ 1600 1075
Connection ~ 1675 1175
Wire Wire Line
	1150 1275 1750 1275
Connection ~ 1750 1275
Wire Wire Line
	2575 1875 2575 1725
Wire Wire Line
	2650 1725 2650 1875
Wire Wire Line
	1525 1875 1525 1725
Wire Wire Line
	1600 1875 1600 1725
Wire Wire Line
	1675 1875 1675 1725
Wire Wire Line
	1675 1875 1750 1875
Wire Wire Line
	1750 1875 1750 1725
Wire Wire Line
	1825 1875 1825 1725
$Comp
L Device:R_Small_US R?
U 1 1 5DF815FC
P 1825 1625
AR Path="/5DF815FC" Ref="R?"  Part="1" 
AR Path="/5DECDFAC/5DF815FC" Ref="R18"  Part="1" 
F 0 "R18" V 1850 1750 50  0000 C CNN
F 1 "2.2K" V 1850 1500 50  0000 C CNN
F 2 "Resistor_SMD:R_0402_1005Metric" H 1825 1625 50  0001 C CNN
F 3 "~" H 1825 1625 50  0001 C CNN
	1    1825 1625
	-1   0    0    1   
$EndComp
$Comp
L Device:R_Small_US R?
U 1 1 5DF819DC
P 1750 1625
AR Path="/5DF819DC" Ref="R?"  Part="1" 
AR Path="/5DECDFAC/5DF819DC" Ref="R17"  Part="1" 
F 0 "R17" V 1775 1750 50  0000 C CNN
F 1 "2.2K" V 1775 1500 50  0000 C CNN
F 2 "Resistor_SMD:R_0402_1005Metric" H 1750 1625 50  0001 C CNN
F 3 "~" H 1750 1625 50  0001 C CNN
	1    1750 1625
	-1   0    0    1   
$EndComp
$Comp
L Device:R_Small_US R?
U 1 1 5DF81CC6
P 1675 1625
AR Path="/5DF81CC6" Ref="R?"  Part="1" 
AR Path="/5DECDFAC/5DF81CC6" Ref="R16"  Part="1" 
F 0 "R16" V 1700 1750 50  0000 C CNN
F 1 "2.2K" V 1700 1500 50  0000 C CNN
F 2 "Resistor_SMD:R_0402_1005Metric" H 1675 1625 50  0001 C CNN
F 3 "~" H 1675 1625 50  0001 C CNN
	1    1675 1625
	-1   0    0    1   
$EndComp
$Comp
L Device:R_Small_US R?
U 1 1 5DF821AF
P 1600 1625
AR Path="/5DF821AF" Ref="R?"  Part="1" 
AR Path="/5DECDFAC/5DF821AF" Ref="R15"  Part="1" 
F 0 "R15" V 1625 1750 50  0000 C CNN
F 1 "2.2K" V 1625 1500 50  0000 C CNN
F 2 "Resistor_SMD:R_0402_1005Metric" H 1600 1625 50  0001 C CNN
F 3 "~" H 1600 1625 50  0001 C CNN
	1    1600 1625
	-1   0    0    1   
$EndComp
$Comp
L Device:R_Small_US R?
U 1 1 5DF823E1
P 1525 1625
AR Path="/5DF823E1" Ref="R?"  Part="1" 
AR Path="/5DECDFAC/5DF823E1" Ref="R14"  Part="1" 
F 0 "R14" V 1550 1750 50  0000 C CNN
F 1 "2.2K" V 1550 1500 50  0000 C CNN
F 2 "Resistor_SMD:R_0402_1005Metric" H 1525 1625 50  0001 C CNN
F 3 "~" H 1525 1625 50  0001 C CNN
	1    1525 1625
	-1   0    0    1   
$EndComp
$Comp
L Device:R_Small_US R?
U 1 1 5DF829F4
P 2575 1625
AR Path="/5DF829F4" Ref="R?"  Part="1" 
AR Path="/5DECDFAC/5DF829F4" Ref="R23"  Part="1" 
F 0 "R23" V 2600 1775 50  0000 C CNN
F 1 "10K" V 2600 1525 50  0000 C CNN
F 2 "Resistor_SMD:R_0402_1005Metric" H 2575 1625 50  0001 C CNN
F 3 "~" H 2575 1625 50  0001 C CNN
	1    2575 1625
	-1   0    0    1   
$EndComp
$Comp
L Device:R_Small_US R?
U 1 1 5DF82D0A
P 2650 1625
AR Path="/5DF82D0A" Ref="R?"  Part="1" 
AR Path="/5DECDFAC/5DF82D0A" Ref="R24"  Part="1" 
F 0 "R24" V 2675 1775 50  0000 C CNN
F 1 "10K" V 2675 1525 50  0000 C CNN
F 2 "Resistor_SMD:R_0402_1005Metric" H 2650 1625 50  0001 C CNN
F 3 "~" H 2650 1625 50  0001 C CNN
	1    2650 1625
	-1   0    0    1   
$EndComp
$Comp
L power:+3.3V #PWR0131
U 1 1 5DF89AD3
P 2125 1900
F 0 "#PWR0131" H 2125 1750 50  0001 C CNN
F 1 "+3.3V" H 2140 2073 50  0000 C CNN
F 2 "" H 2125 1900 50  0001 C CNN
F 3 "" H 2125 1900 50  0001 C CNN
	1    2125 1900
	-1   0    0    1   
$EndComp
Text GLabel 9375 1375 0    50   BiDi ~ 0
1W-4CH-ADC1
Text GLabel 9400 2400 0    50   BiDi ~ 0
1W-4CH-ADC2
Text GLabel 9375 3450 0    50   BiDi ~ 0
1W-4CH-ADC3
Wire Wire Line
	9375 3450 9500 3450
Wire Wire Line
	9525 2400 9400 2400
Wire Wire Line
	9525 1375 9375 1375
Wire Wire Line
	9525 1475 9375 1475
Wire Wire Line
	10725 1175 10850 1175
Wire Wire Line
	10725 1275 10850 1275
Wire Wire Line
	10725 1375 10850 1375
Wire Wire Line
	10725 1475 10850 1475
Wire Wire Line
	10725 2200 10850 2200
Wire Wire Line
	10725 2300 10850 2300
Wire Wire Line
	10725 2400 10850 2400
Wire Wire Line
	10725 2500 10850 2500
Wire Wire Line
	9525 2500 9400 2500
$Comp
L power:GND #PWR0132
U 1 1 5DFE905E
P 9375 1475
F 0 "#PWR0132" H 9375 1225 50  0001 C CNN
F 1 "GND" V 9380 1347 50  0000 R CNN
F 2 "" H 9375 1475 50  0001 C CNN
F 3 "" H 9375 1475 50  0001 C CNN
	1    9375 1475
	0    1    1    0   
$EndComp
$Comp
L power:GND #PWR0133
U 1 1 5DFE911E
P 9400 2500
F 0 "#PWR0133" H 9400 2250 50  0001 C CNN
F 1 "GND" V 9405 2372 50  0000 R CNN
F 2 "" H 9400 2500 50  0001 C CNN
F 3 "" H 9400 2500 50  0001 C CNN
	1    9400 2500
	0    1    1    0   
$EndComp
Wire Wire Line
	10700 3250 10825 3250
Wire Wire Line
	10700 3350 10825 3350
Wire Wire Line
	10700 3450 10825 3450
Wire Wire Line
	10700 3550 10825 3550
$Comp
L power:GND #PWR0134
U 1 1 5DFEC794
P 9350 3550
F 0 "#PWR0134" H 9350 3300 50  0001 C CNN
F 1 "GND" V 9355 3422 50  0000 R CNN
F 2 "" H 9350 3550 50  0001 C CNN
F 3 "" H 9350 3550 50  0001 C CNN
	1    9350 3550
	0    1    1    0   
$EndComp
$Comp
L power:+5V #PWR0135
U 1 1 5DFECB61
P 9325 3250
F 0 "#PWR0135" H 9325 3100 50  0001 C CNN
F 1 "+5V" V 9340 3378 50  0000 L CNN
F 2 "" H 9325 3250 50  0001 C CNN
F 3 "" H 9325 3250 50  0001 C CNN
	1    9325 3250
	0    -1   -1   0   
$EndComp
Wire Wire Line
	9325 3250 9350 3250
Wire Wire Line
	9350 3550 9500 3550
$Comp
L DS2408S+:DS2408S+ IC?
U 1 1 5D7E13CC
P 1375 3850
AR Path="/5DECDFAC/5D7CE77A/5D7E13CC" Ref="IC?"  Part="1" 
AR Path="/5DECDFAC/5D7E13CC" Ref="IC1"  Part="1" 
F 0 "IC1" H 1925 4115 50  0000 C CNN
F 1 "DS2408S+" H 1925 4024 50  0000 C CNN
F 2 "SOIC127P600X175-16N" H 2325 3950 50  0001 L CNN
F 3 "http://datasheets.maximintegrated.com/en/ds/DS2408.pdf" H 2325 3850 50  0001 L CNN
F 4 "1-Wire 8-Channel Addressable Switch" H 2325 3750 50  0001 L CNN "Description"
F 5 "1.75" H 2325 3650 50  0001 L CNN "Height"
F 6 "Maxim Integrated" H 2325 3550 50  0001 L CNN "Manufacturer_Name"
F 7 "DS2408S+" H 2325 3450 50  0001 L CNN "Manufacturer_Part_Number"
F 8 "700-DS2408S+" H 2325 3350 50  0001 L CNN "Mouser Part Number"
F 9 "https://www.mouser.com/Search/Refine.aspx?Keyword=700-DS2408S%2B" H 2325 3250 50  0001 L CNN "Mouser Price/Stock"
F 10 "7327529P" H 2325 3150 50  0001 L CNN "RS Part Number"
F 11 "http://uk.rs-online.com/web/p/products/7327529P" H 2325 3050 50  0001 L CNN "RS Price/Stock"
	1    1375 3850
	1    0    0    -1  
$EndComp
Wire Wire Line
	1375 4450 1175 4450
Wire Wire Line
	1375 3850 1175 3850
Wire Wire Line
	1175 3850 1175 3650
Wire Wire Line
	1175 3500 1400 3500
Wire Wire Line
	1375 4600 1175 4600
Wire Wire Line
	975  3500 825  3500
$Comp
L power:GND #PWR?
U 1 1 5D7E13D8
P 825 3750
AR Path="/5DECDFAC/5D7CE77A/5D7E13D8" Ref="#PWR?"  Part="1" 
AR Path="/5DECDFAC/5D7E13D8" Ref="#PWR0136"  Part="1" 
F 0 "#PWR0136" H 825 3500 50  0001 C CNN
F 1 "GND" H 830 3577 50  0000 C CNN
F 2 "" H 825 3750 50  0001 C CNN
F 3 "" H 825 3750 50  0001 C CNN
	1    825  3750
	1    0    0    -1  
$EndComp
$Comp
L power:GND #PWR?
U 1 1 5D7E13DE
P 1175 4600
AR Path="/5DECDFAC/5D7CE77A/5D7E13DE" Ref="#PWR?"  Part="1" 
AR Path="/5DECDFAC/5D7E13DE" Ref="#PWR0137"  Part="1" 
F 0 "#PWR0137" H 1175 4350 50  0001 C CNN
F 1 "GND" H 1180 4427 50  0000 C CNN
F 2 "" H 1175 4600 50  0001 C CNN
F 3 "" H 1175 4600 50  0001 C CNN
	1    1175 4600
	1    0    0    -1  
$EndComp
Wire Wire Line
	2675 4550 2675 4900
$Comp
L Device:R_Small_US R?
U 1 1 5D7E13E6
P 2675 5000
AR Path="/5DECDFAC/5D7CE77A/5D7E13E6" Ref="R?"  Part="1" 
AR Path="/5DECDFAC/5D7E13E6" Ref="R25"  Part="1" 
F 0 "R25" H 2675 5100 50  0000 L CNN
F 1 "10k" H 2675 4875 50  0000 L CNN
F 2 "Resistor_SMD:R_0805_2012Metric" H 2675 5000 50  0001 C CNN
F 3 "~" H 2675 5000 50  0001 C CNN
	1    2675 5000
	1    0    0    -1  
$EndComp
$Comp
L Device:R_Small_US R?
U 1 1 5D7E13EC
P 2825 5000
AR Path="/5DECDFAC/5D7CE77A/5D7E13EC" Ref="R?"  Part="1" 
AR Path="/5DECDFAC/5D7E13EC" Ref="R27"  Part="1" 
F 0 "R27" H 2825 5100 50  0000 L CNN
F 1 "10k" H 2825 4875 50  0000 L CNN
F 2 "Resistor_SMD:R_0805_2012Metric" H 2825 5000 50  0001 C CNN
F 3 "~" H 2825 5000 50  0001 C CNN
	1    2825 5000
	1    0    0    -1  
$EndComp
Wire Wire Line
	2825 4450 2825 4900
Wire Wire Line
	2975 4350 2975 4900
Wire Wire Line
	3125 4250 3125 4900
Wire Wire Line
	3275 4150 3275 4900
Wire Wire Line
	3425 4050 3425 4900
Wire Wire Line
	3575 3950 3575 4900
Wire Wire Line
	3725 3850 3725 4900
Wire Wire Line
	2675 5100 2675 5200
Wire Wire Line
	3725 5200 3725 5100
Wire Wire Line
	3575 5100 3575 5200
Connection ~ 3575 5200
Wire Wire Line
	3575 5200 3725 5200
Wire Wire Line
	3425 5100 3425 5200
Connection ~ 3425 5200
Wire Wire Line
	3425 5200 3575 5200
Wire Wire Line
	3275 5100 3275 5200
Connection ~ 3275 5200
Wire Wire Line
	3275 5200 3425 5200
Wire Wire Line
	3125 5100 3125 5200
Connection ~ 3125 5200
Wire Wire Line
	3125 5200 3275 5200
Wire Wire Line
	2975 5100 2975 5200
Connection ~ 2975 5200
Wire Wire Line
	2975 5200 3125 5200
Wire Wire Line
	2825 5100 2825 5200
Connection ~ 2825 5200
Wire Wire Line
	2825 5200 2975 5200
Wire Wire Line
	2425 5200 2425 4950
Wire Wire Line
	2425 4950 2275 4950
Wire Wire Line
	2275 4950 2275 5000
$Comp
L Device:R_Small_US R?
U 1 1 5D7E1410
P 2975 5000
AR Path="/5DECDFAC/5D7CE77A/5D7E1410" Ref="R?"  Part="1" 
AR Path="/5DECDFAC/5D7E1410" Ref="R29"  Part="1" 
F 0 "R29" H 2975 5100 50  0000 L CNN
F 1 "10k" H 2975 4875 50  0000 L CNN
F 2 "Resistor_SMD:R_0805_2012Metric" H 2975 5000 50  0001 C CNN
F 3 "~" H 2975 5000 50  0001 C CNN
	1    2975 5000
	1    0    0    -1  
$EndComp
$Comp
L Device:R_Small_US R?
U 1 1 5D7E1416
P 3125 5000
AR Path="/5DECDFAC/5D7CE77A/5D7E1416" Ref="R?"  Part="1" 
AR Path="/5DECDFAC/5D7E1416" Ref="R31"  Part="1" 
F 0 "R31" H 3125 5100 50  0000 L CNN
F 1 "10k" H 3125 4875 50  0000 L CNN
F 2 "Resistor_SMD:R_0805_2012Metric" H 3125 5000 50  0001 C CNN
F 3 "~" H 3125 5000 50  0001 C CNN
	1    3125 5000
	1    0    0    -1  
$EndComp
$Comp
L Device:R_Small_US R?
U 1 1 5D7E141C
P 3275 5000
AR Path="/5DECDFAC/5D7CE77A/5D7E141C" Ref="R?"  Part="1" 
AR Path="/5DECDFAC/5D7E141C" Ref="R33"  Part="1" 
F 0 "R33" H 3275 5100 50  0000 L CNN
F 1 "10k" H 3275 4875 50  0000 L CNN
F 2 "Resistor_SMD:R_0805_2012Metric" H 3275 5000 50  0001 C CNN
F 3 "~" H 3275 5000 50  0001 C CNN
	1    3275 5000
	1    0    0    -1  
$EndComp
$Comp
L Device:R_Small_US R?
U 1 1 5D7E1422
P 3425 5000
AR Path="/5DECDFAC/5D7CE77A/5D7E1422" Ref="R?"  Part="1" 
AR Path="/5DECDFAC/5D7E1422" Ref="R35"  Part="1" 
F 0 "R35" H 3425 5100 50  0000 L CNN
F 1 "10k" H 3425 4875 50  0000 L CNN
F 2 "Resistor_SMD:R_0805_2012Metric" H 3425 5000 50  0001 C CNN
F 3 "~" H 3425 5000 50  0001 C CNN
	1    3425 5000
	1    0    0    -1  
$EndComp
$Comp
L Device:R_Small_US R?
U 1 1 5D7E1428
P 3575 5000
AR Path="/5DECDFAC/5D7CE77A/5D7E1428" Ref="R?"  Part="1" 
AR Path="/5DECDFAC/5D7E1428" Ref="R37"  Part="1" 
F 0 "R37" H 3575 5100 50  0000 L CNN
F 1 "10k" H 3575 4875 50  0000 L CNN
F 2 "Resistor_SMD:R_0805_2012Metric" H 3575 5000 50  0001 C CNN
F 3 "~" H 3575 5000 50  0001 C CNN
	1    3575 5000
	1    0    0    -1  
$EndComp
$Comp
L Device:R_Small_US R?
U 1 1 5D7E142E
P 3725 5000
AR Path="/5DECDFAC/5D7CE77A/5D7E142E" Ref="R?"  Part="1" 
AR Path="/5DECDFAC/5D7E142E" Ref="R39"  Part="1" 
F 0 "R39" H 3725 5100 50  0000 L CNN
F 1 "10k" H 3725 4875 50  0000 L CNN
F 2 "Resistor_SMD:R_0805_2012Metric" H 3725 5000 50  0001 C CNN
F 3 "~" H 3725 5000 50  0001 C CNN
	1    3725 5000
	1    0    0    -1  
$EndComp
Wire Wire Line
	1400 3350 1400 3500
$Comp
L power:+5V #PWR?
U 1 1 5D7E1435
P 1400 3350
AR Path="/5DECDFAC/5D7CE77A/5D7E1435" Ref="#PWR?"  Part="1" 
AR Path="/5DECDFAC/5D7E1435" Ref="#PWR0138"  Part="1" 
F 0 "#PWR0138" H 1400 3200 50  0001 C CNN
F 1 "+5V" H 1415 3523 50  0000 C CNN
F 2 "" H 1400 3350 50  0001 C CNN
F 3 "" H 1400 3350 50  0001 C CNN
	1    1400 3350
	1    0    0    -1  
$EndComp
Text GLabel 4150 3850 1    50   Input ~ 0
P0
Text GLabel 4250 3950 1    50   Input ~ 0
P1
Text GLabel 5050 4175 2    50   Input ~ 0
P2
Text GLabel 4250 4300 3    50   Input ~ 0
P3
Text GLabel 4350 4500 3    50   Input ~ 0
P4
Text GLabel 5200 4500 2    50   Input ~ 0
P5
Text GLabel 3925 5050 3    50   Input ~ 0
P6
Text GLabel 3825 5250 3    50   Input ~ 0
P7
$Comp
L power:+5V #PWR?
U 1 1 5D7E1443
P 2275 5000
AR Path="/5DECDFAC/5D7CE77A/5D7E1443" Ref="#PWR?"  Part="1" 
AR Path="/5DECDFAC/5D7E1443" Ref="#PWR0139"  Part="1" 
F 0 "#PWR0139" H 2275 4850 50  0001 C CNN
F 1 "+5V" H 2290 5173 50  0000 C CNN
F 2 "" H 2275 5000 50  0001 C CNN
F 3 "" H 2275 5000 50  0001 C CNN
	1    2275 5000
	1    0    0    1   
$EndComp
$Comp
L Device:CP1_Small C?
U 1 1 5D7E1449
P 1075 3500
AR Path="/5DECDFAC/5D7CE77A/5D7E1449" Ref="C?"  Part="1" 
AR Path="/5DECDFAC/5D7E1449" Ref="C17"  Part="1" 
F 0 "C17" V 1025 3400 50  0000 C CNN
F 1 "47uF" V 1025 3650 50  0000 C CNN
F 2 "Capacitor_THT:CP_Radial_D5.0mm_P2.50mm" H 1075 3500 50  0001 C CNN
F 3 "~" H 1075 3500 50  0001 C CNN
	1    1075 3500
	0    1    1    0   
$EndComp
Connection ~ 1175 3500
Connection ~ 2825 4450
Connection ~ 2975 4350
Connection ~ 3125 4250
Connection ~ 3275 4150
Connection ~ 3425 4050
Connection ~ 3575 3950
Connection ~ 3725 3850
Wire Wire Line
	2475 4450 2825 4450
Wire Wire Line
	2475 4350 2975 4350
Wire Wire Line
	2475 4250 3125 4250
Wire Wire Line
	2475 4150 3275 4150
Wire Wire Line
	2475 4050 3425 4050
Wire Wire Line
	2475 3950 3575 3950
Wire Wire Line
	2475 3850 3725 3850
Connection ~ 2675 4550
Wire Wire Line
	2675 4550 3825 4550
Connection ~ 2675 5200
Wire Wire Line
	2675 5200 2825 5200
Wire Wire Line
	2475 4550 2675 4550
Wire Wire Line
	2475 4700 2525 4700
Wire Wire Line
	2525 4700 2525 4900
Wire Wire Line
	2425 5200 2525 5200
$Comp
L Device:R_Small_US R?
U 1 1 5D7E146D
P 2525 5000
AR Path="/5DECDFAC/5D7CE77A/5D7E146D" Ref="R?"  Part="1" 
AR Path="/5DECDFAC/5D7E146D" Ref="R21"  Part="1" 
F 0 "R21" H 2525 5100 50  0000 L CNN
F 1 "10k" H 2525 4875 50  0000 L CNN
F 2 "Resistor_SMD:R_0805_2012Metric" H 2525 5000 50  0001 C CNN
F 3 "~" H 2525 5000 50  0001 C CNN
	1    2525 5000
	1    0    0    -1  
$EndComp
Wire Wire Line
	2525 5100 2525 5200
Connection ~ 2525 5200
Wire Wire Line
	2525 5200 2675 5200
$Comp
L Device:C_Small C?
U 1 1 5D7E1476
P 1075 3650
AR Path="/5DECDFAC/5D7CE77A/5D7E1476" Ref="C?"  Part="1" 
AR Path="/5DECDFAC/5D7E1476" Ref="C18"  Part="1" 
F 0 "C18" V 1025 3550 50  0000 C CNN
F 1 "2.2uF/16v/X5R" V 1175 3800 50  0000 C CNN
F 2 "Capacitor_SMD:C_0402_1005Metric" H 1075 3650 50  0001 C CNN
F 3 "~" H 1075 3650 50  0001 C CNN
	1    1075 3650
	0    1    1    0   
$EndComp
Connection ~ 1175 3650
Wire Wire Line
	1175 3650 1175 3500
Wire Wire Line
	975  3650 825  3650
Wire Wire Line
	825  3650 825  3750
Wire Wire Line
	825  3500 825  3650
Connection ~ 825  3650
$Comp
L DS2408S+:DS2408S+ IC?
U 1 1 5D7EA0A4
P 1350 5725
AR Path="/5DECDFAC/5D7CE77A/5D7EA0A4" Ref="IC?"  Part="1" 
AR Path="/5DECDFAC/5D7EA0A4" Ref="IC2"  Part="1" 
F 0 "IC2" H 1900 5990 50  0000 C CNN
F 1 "DS2408S+" H 1900 5899 50  0000 C CNN
F 2 "SOIC127P600X175-16N" H 2300 5825 50  0001 L CNN
F 3 "http://datasheets.maximintegrated.com/en/ds/DS2408.pdf" H 2300 5725 50  0001 L CNN
F 4 "1-Wire 8-Channel Addressable Switch" H 2300 5625 50  0001 L CNN "Description"
F 5 "1.75" H 2300 5525 50  0001 L CNN "Height"
F 6 "Maxim Integrated" H 2300 5425 50  0001 L CNN "Manufacturer_Name"
F 7 "DS2408S+" H 2300 5325 50  0001 L CNN "Manufacturer_Part_Number"
F 8 "700-DS2408S+" H 2300 5225 50  0001 L CNN "Mouser Part Number"
F 9 "https://www.mouser.com/Search/Refine.aspx?Keyword=700-DS2408S%2B" H 2300 5125 50  0001 L CNN "Mouser Price/Stock"
F 10 "7327529P" H 2300 5025 50  0001 L CNN "RS Part Number"
F 11 "http://uk.rs-online.com/web/p/products/7327529P" H 2300 4925 50  0001 L CNN "RS Price/Stock"
	1    1350 5725
	1    0    0    -1  
$EndComp
Wire Wire Line
	1350 6325 1150 6325
Wire Wire Line
	1350 5725 1150 5725
Wire Wire Line
	1150 5725 1150 5525
Wire Wire Line
	1150 5375 1325 5375
Wire Wire Line
	1350 6475 1150 6475
Wire Wire Line
	950  5375 800  5375
$Comp
L power:GND #PWR?
U 1 1 5D7EA0B0
P 800 5625
AR Path="/5DECDFAC/5D7CE77A/5D7EA0B0" Ref="#PWR?"  Part="1" 
AR Path="/5DECDFAC/5D7EA0B0" Ref="#PWR0140"  Part="1" 
F 0 "#PWR0140" H 800 5375 50  0001 C CNN
F 1 "GND" H 805 5452 50  0000 C CNN
F 2 "" H 800 5625 50  0001 C CNN
F 3 "" H 800 5625 50  0001 C CNN
	1    800  5625
	1    0    0    -1  
$EndComp
$Comp
L power:GND #PWR?
U 1 1 5D7EA0B6
P 1150 6475
AR Path="/5DECDFAC/5D7CE77A/5D7EA0B6" Ref="#PWR?"  Part="1" 
AR Path="/5DECDFAC/5D7EA0B6" Ref="#PWR0141"  Part="1" 
F 0 "#PWR0141" H 1150 6225 50  0001 C CNN
F 1 "GND" H 1155 6302 50  0000 C CNN
F 2 "" H 1150 6475 50  0001 C CNN
F 3 "" H 1150 6475 50  0001 C CNN
	1    1150 6475
	1    0    0    -1  
$EndComp
Wire Wire Line
	2650 6425 2650 6775
$Comp
L Device:R_Small_US R?
U 1 1 5D7EA0BE
P 2650 6875
AR Path="/5DECDFAC/5D7CE77A/5D7EA0BE" Ref="R?"  Part="1" 
AR Path="/5DECDFAC/5D7EA0BE" Ref="R26"  Part="1" 
F 0 "R26" H 2650 6975 50  0000 L CNN
F 1 "10k" H 2650 6750 50  0000 L CNN
F 2 "Resistor_SMD:R_0805_2012Metric" H 2650 6875 50  0001 C CNN
F 3 "~" H 2650 6875 50  0001 C CNN
	1    2650 6875
	1    0    0    -1  
$EndComp
$Comp
L Device:R_Small_US R?
U 1 1 5D7EA0C4
P 2800 6875
AR Path="/5DECDFAC/5D7CE77A/5D7EA0C4" Ref="R?"  Part="1" 
AR Path="/5DECDFAC/5D7EA0C4" Ref="R28"  Part="1" 
F 0 "R28" H 2800 6975 50  0000 L CNN
F 1 "10k" H 2800 6750 50  0000 L CNN
F 2 "Resistor_SMD:R_0805_2012Metric" H 2800 6875 50  0001 C CNN
F 3 "~" H 2800 6875 50  0001 C CNN
	1    2800 6875
	1    0    0    -1  
$EndComp
Wire Wire Line
	2800 6325 2800 6775
Wire Wire Line
	2950 6225 2950 6775
Wire Wire Line
	3100 6125 3100 6775
Wire Wire Line
	3250 6025 3250 6775
Wire Wire Line
	3400 5925 3400 6775
Wire Wire Line
	3550 5825 3550 6775
Wire Wire Line
	3700 5725 3700 6775
Wire Wire Line
	2650 6975 2650 7075
Wire Wire Line
	3700 7075 3700 6975
Wire Wire Line
	3550 6975 3550 7075
Connection ~ 3550 7075
Wire Wire Line
	3550 7075 3700 7075
Wire Wire Line
	3400 6975 3400 7075
Connection ~ 3400 7075
Wire Wire Line
	3400 7075 3550 7075
Wire Wire Line
	3250 6975 3250 7075
Connection ~ 3250 7075
Wire Wire Line
	3250 7075 3400 7075
Wire Wire Line
	3100 6975 3100 7075
Connection ~ 3100 7075
Wire Wire Line
	3100 7075 3250 7075
Wire Wire Line
	2950 6975 2950 7075
Connection ~ 2950 7075
Wire Wire Line
	2950 7075 3100 7075
Wire Wire Line
	2800 6975 2800 7075
Connection ~ 2800 7075
Wire Wire Line
	2800 7075 2950 7075
Wire Wire Line
	2400 7075 2400 6825
Wire Wire Line
	2400 6825 2250 6825
Wire Wire Line
	2250 6825 2250 6875
$Comp
L Device:R_Small_US R?
U 1 1 5D7EA0E8
P 2950 6875
AR Path="/5DECDFAC/5D7CE77A/5D7EA0E8" Ref="R?"  Part="1" 
AR Path="/5DECDFAC/5D7EA0E8" Ref="R30"  Part="1" 
F 0 "R30" H 2950 6975 50  0000 L CNN
F 1 "10K" H 2950 6750 50  0000 L CNN
F 2 "Resistor_SMD:R_0805_2012Metric" H 2950 6875 50  0001 C CNN
F 3 "~" H 2950 6875 50  0001 C CNN
	1    2950 6875
	1    0    0    -1  
$EndComp
$Comp
L Device:R_Small_US R?
U 1 1 5D7EA0EE
P 3100 6875
AR Path="/5DECDFAC/5D7CE77A/5D7EA0EE" Ref="R?"  Part="1" 
AR Path="/5DECDFAC/5D7EA0EE" Ref="R32"  Part="1" 
F 0 "R32" H 3100 6975 50  0000 L CNN
F 1 "10k" H 3100 6750 50  0000 L CNN
F 2 "Resistor_SMD:R_0805_2012Metric" H 3100 6875 50  0001 C CNN
F 3 "~" H 3100 6875 50  0001 C CNN
	1    3100 6875
	1    0    0    -1  
$EndComp
$Comp
L Device:R_Small_US R?
U 1 1 5D7EA0F4
P 3250 6875
AR Path="/5DECDFAC/5D7CE77A/5D7EA0F4" Ref="R?"  Part="1" 
AR Path="/5DECDFAC/5D7EA0F4" Ref="R34"  Part="1" 
F 0 "R34" H 3250 6975 50  0000 L CNN
F 1 "10k" H 3250 6750 50  0000 L CNN
F 2 "Resistor_SMD:R_0805_2012Metric" H 3250 6875 50  0001 C CNN
F 3 "~" H 3250 6875 50  0001 C CNN
	1    3250 6875
	1    0    0    -1  
$EndComp
$Comp
L Device:R_Small_US R?
U 1 1 5D7EA0FA
P 3400 6875
AR Path="/5DECDFAC/5D7CE77A/5D7EA0FA" Ref="R?"  Part="1" 
AR Path="/5DECDFAC/5D7EA0FA" Ref="R36"  Part="1" 
F 0 "R36" H 3400 6975 50  0000 L CNN
F 1 "10k" H 3400 6750 50  0000 L CNN
F 2 "Resistor_SMD:R_0805_2012Metric" H 3400 6875 50  0001 C CNN
F 3 "~" H 3400 6875 50  0001 C CNN
	1    3400 6875
	1    0    0    -1  
$EndComp
$Comp
L Device:R_Small_US R?
U 1 1 5D7EA100
P 3550 6875
AR Path="/5DECDFAC/5D7CE77A/5D7EA100" Ref="R?"  Part="1" 
AR Path="/5DECDFAC/5D7EA100" Ref="R38"  Part="1" 
F 0 "R38" H 3550 6975 50  0000 L CNN
F 1 "10k" H 3550 6750 50  0000 L CNN
F 2 "Resistor_SMD:R_0805_2012Metric" H 3550 6875 50  0001 C CNN
F 3 "~" H 3550 6875 50  0001 C CNN
	1    3550 6875
	1    0    0    -1  
$EndComp
$Comp
L Device:R_Small_US R?
U 1 1 5D7EA106
P 3700 6875
AR Path="/5DECDFAC/5D7CE77A/5D7EA106" Ref="R?"  Part="1" 
AR Path="/5DECDFAC/5D7EA106" Ref="R40"  Part="1" 
F 0 "R40" H 3700 6975 50  0000 L CNN
F 1 "10k" H 3700 6750 50  0000 L CNN
F 2 "Resistor_SMD:R_0805_2012Metric" H 3700 6875 50  0001 C CNN
F 3 "~" H 3700 6875 50  0001 C CNN
	1    3700 6875
	1    0    0    -1  
$EndComp
Wire Wire Line
	1325 5225 1325 5375
$Comp
L power:+5V #PWR?
U 1 1 5D7EA10D
P 1325 5225
AR Path="/5DECDFAC/5D7CE77A/5D7EA10D" Ref="#PWR?"  Part="1" 
AR Path="/5DECDFAC/5D7EA10D" Ref="#PWR0142"  Part="1" 
F 0 "#PWR0142" H 1325 5075 50  0001 C CNN
F 1 "+5V" H 1340 5398 50  0000 C CNN
F 2 "" H 1325 5225 50  0001 C CNN
F 3 "" H 1325 5225 50  0001 C CNN
	1    1325 5225
	1    0    0    -1  
$EndComp
Text GLabel 3850 5625 1    50   Input ~ 0
P8
Text GLabel 4000 5825 1    50   Input ~ 0
P9
Text GLabel 3850 5925 2    50   Input ~ 0
P10
Text GLabel 3850 6025 2    50   Input ~ 0
P11
Text GLabel 3850 6125 2    50   Input ~ 0
P12
Text GLabel 3850 6225 2    50   Input ~ 0
P13
Text GLabel 3850 6325 2    50   Input ~ 0
P14
Text GLabel 3850 6425 2    50   Input ~ 0
P15
$Comp
L power:+5V #PWR?
U 1 1 5D7EA11B
P 2250 6875
AR Path="/5DECDFAC/5D7CE77A/5D7EA11B" Ref="#PWR?"  Part="1" 
AR Path="/5DECDFAC/5D7EA11B" Ref="#PWR0143"  Part="1" 
F 0 "#PWR0143" H 2250 6725 50  0001 C CNN
F 1 "+5V" H 2265 7048 50  0000 C CNN
F 2 "" H 2250 6875 50  0001 C CNN
F 3 "" H 2250 6875 50  0001 C CNN
	1    2250 6875
	1    0    0    1   
$EndComp
$Comp
L Device:CP1_Small C?
U 1 1 5D7EA121
P 1050 5375
AR Path="/5DECDFAC/5D7CE77A/5D7EA121" Ref="C?"  Part="1" 
AR Path="/5DECDFAC/5D7EA121" Ref="C19"  Part="1" 
F 0 "C19" V 822 5375 50  0000 C CNN
F 1 "47uF" V 913 5375 50  0000 C CNN
F 2 "Capacitor_THT:CP_Radial_D5.0mm_P2.50mm" H 1050 5375 50  0001 C CNN
F 3 "~" H 1050 5375 50  0001 C CNN
	1    1050 5375
	0    1    1    0   
$EndComp
Connection ~ 1150 5375
Connection ~ 2800 6325
Connection ~ 2950 6225
Connection ~ 3100 6125
Connection ~ 3250 6025
Connection ~ 3400 5925
Connection ~ 3550 5825
Connection ~ 3700 5725
Wire Wire Line
	3700 5725 3850 5725
Wire Wire Line
	2450 6325 2800 6325
Wire Wire Line
	2450 6225 2950 6225
Wire Wire Line
	2450 6125 3100 6125
Wire Wire Line
	2450 6025 3250 6025
Wire Wire Line
	2450 5925 3400 5925
Wire Wire Line
	2450 5825 3550 5825
Wire Wire Line
	2450 5725 3700 5725
Connection ~ 2650 6425
Connection ~ 2650 7075
Wire Wire Line
	2650 7075 2800 7075
Wire Wire Line
	2450 6425 2650 6425
Wire Wire Line
	2450 6575 2500 6575
Wire Wire Line
	2500 6575 2500 6775
Wire Wire Line
	2400 7075 2500 7075
$Comp
L Device:R_Small_US R?
U 1 1 5D7EA145
P 2500 6875
AR Path="/5DECDFAC/5D7CE77A/5D7EA145" Ref="R?"  Part="1" 
AR Path="/5DECDFAC/5D7EA145" Ref="R22"  Part="1" 
F 0 "R22" H 2500 6975 50  0000 L CNN
F 1 "10k" H 2500 6750 50  0000 L CNN
F 2 "Resistor_SMD:R_0805_2012Metric" H 2500 6875 50  0001 C CNN
F 3 "~" H 2500 6875 50  0001 C CNN
	1    2500 6875
	1    0    0    -1  
$EndComp
Wire Wire Line
	2500 6975 2500 7075
Connection ~ 2500 7075
Wire Wire Line
	2500 7075 2650 7075
$Comp
L Device:C_Small C?
U 1 1 5D7EA14E
P 1050 5525
AR Path="/5DECDFAC/5D7CE77A/5D7EA14E" Ref="C?"  Part="1" 
AR Path="/5DECDFAC/5D7EA14E" Ref="C20"  Part="1" 
F 0 "C20" V 1000 5425 50  0000 C CNN
F 1 "2.2uF/16v/X5R" V 1150 5675 50  0000 C CNN
F 2 "Capacitor_SMD:C_0402_1005Metric" H 1050 5525 50  0001 C CNN
F 3 "~" H 1050 5525 50  0001 C CNN
	1    1050 5525
	0    1    1    0   
$EndComp
Connection ~ 1150 5525
Wire Wire Line
	1150 5525 1150 5375
Wire Wire Line
	950  5525 800  5525
Wire Wire Line
	800  5525 800  5625
Wire Wire Line
	800  5375 800  5525
Connection ~ 800  5525
Text GLabel 1150 6325 0    50   BiDi ~ 0
1W-8CH-IO1
Text GLabel 1175 4450 0    50   BiDi ~ 0
1W-8CH-IO2
Text GLabel 10850 1175 2    50   Input ~ 0
ANLG0
Text GLabel 10850 1275 2    50   Input ~ 0
ANLG1
Text GLabel 10850 1375 2    50   Input ~ 0
ANLG2
Text GLabel 10850 1475 2    50   Input ~ 0
ANLG3
Text GLabel 10850 2200 2    50   Input ~ 0
ANLG4
Text GLabel 10850 2300 2    50   Input ~ 0
ANLG5
Text GLabel 10850 2400 2    50   Input ~ 0
ANLG6
Text GLabel 10850 2500 2    50   Input ~ 0
ANLG7
Text GLabel 10825 3250 2    50   Input ~ 0
ANLG8
Text GLabel 10825 3350 2    50   Input ~ 0
ANLG9
Text GLabel 10825 3450 2    50   Input ~ 0
ANLG10
Text GLabel 10825 3550 2    50   Input ~ 0
ANLG11
$Comp
L Device:CP1_Small C?
U 1 1 5D8BC9BC
P 9500 3150
AR Path="/5DECDFAC/5D7CE77A/5D8BC9BC" Ref="C?"  Part="1" 
AR Path="/5DECDFAC/5D8BC9BC" Ref="C24"  Part="1" 
F 0 "C24" H 9375 3050 50  0000 C CNN
F 1 "47uF" H 9350 3125 50  0000 C CNN
F 2 "Capacitor_THT:CP_Radial_D5.0mm_P2.50mm" H 9500 3150 50  0001 C CNN
F 3 "~" H 9500 3150 50  0001 C CNN
	1    9500 3150
	-1   0    0    1   
$EndComp
$Comp
L Device:C_Small C?
U 1 1 5D8BC9C2
P 9350 3150
AR Path="/5DECDFAC/5D7CE77A/5D8BC9C2" Ref="C?"  Part="1" 
AR Path="/5DECDFAC/5D8BC9C2" Ref="C21"  Part="1" 
F 0 "C21" H 9450 3050 50  0000 C CNN
F 1 "2.2uF/16v/X5R" H 9700 3150 50  0000 C CNN
F 2 "Capacitor_SMD:C_0402_1005Metric" H 9350 3150 50  0001 C CNN
F 3 "~" H 9350 3150 50  0001 C CNN
	1    9350 3150
	-1   0    0    1   
$EndComp
Connection ~ 9350 3250
Wire Wire Line
	9350 3250 9500 3250
Connection ~ 9500 3250
Wire Wire Line
	9500 3050 9425 3050
Wire Wire Line
	9425 3050 9425 2975
Connection ~ 9425 3050
Wire Wire Line
	9425 3050 9350 3050
$Comp
L power:GND #PWR0144
U 1 1 5D8EFAC2
P 9425 2975
F 0 "#PWR0144" H 9425 2725 50  0001 C CNN
F 1 "GND" V 9430 2847 50  0000 R CNN
F 2 "" H 9425 2975 50  0001 C CNN
F 3 "" H 9425 2975 50  0001 C CNN
	1    9425 2975
	-1   0    0    1   
$EndComp
$Comp
L power:+5V #PWR0145
U 1 1 5D8F4776
P 9350 2200
F 0 "#PWR0145" H 9350 2050 50  0001 C CNN
F 1 "+5V" V 9365 2328 50  0000 L CNN
F 2 "" H 9350 2200 50  0001 C CNN
F 3 "" H 9350 2200 50  0001 C CNN
	1    9350 2200
	0    -1   -1   0   
$EndComp
Wire Wire Line
	9350 2200 9375 2200
$Comp
L Device:CP1_Small C?
U 1 1 5D8F477D
P 9525 2100
AR Path="/5DECDFAC/5D7CE77A/5D8F477D" Ref="C?"  Part="1" 
AR Path="/5DECDFAC/5D8F477D" Ref="C26"  Part="1" 
F 0 "C26" H 9425 2025 50  0000 C CNN
F 1 "47uF" H 9375 2100 50  0000 C CNN
F 2 "Capacitor_THT:CP_Radial_D5.0mm_P2.50mm" H 9525 2100 50  0001 C CNN
F 3 "~" H 9525 2100 50  0001 C CNN
	1    9525 2100
	-1   0    0    1   
$EndComp
$Comp
L Device:C_Small C?
U 1 1 5D8F4783
P 9375 2100
AR Path="/5DECDFAC/5D7CE77A/5D8F4783" Ref="C?"  Part="1" 
AR Path="/5DECDFAC/5D8F4783" Ref="C23"  Part="1" 
F 0 "C23" H 9475 2000 50  0000 C CNN
F 1 "2.2uF/16v/X5R" H 9725 2100 50  0000 C CNN
F 2 "Capacitor_SMD:C_0402_1005Metric" H 9375 2100 50  0001 C CNN
F 3 "~" H 9375 2100 50  0001 C CNN
	1    9375 2100
	-1   0    0    1   
$EndComp
Connection ~ 9375 2200
Wire Wire Line
	9375 2200 9525 2200
Wire Wire Line
	9525 2000 9450 2000
Wire Wire Line
	9450 2000 9450 1925
Connection ~ 9450 2000
Wire Wire Line
	9450 2000 9375 2000
$Comp
L power:GND #PWR0146
U 1 1 5D8F478F
P 9450 1925
F 0 "#PWR0146" H 9450 1675 50  0001 C CNN
F 1 "GND" V 9455 1797 50  0000 R CNN
F 2 "" H 9450 1925 50  0001 C CNN
F 3 "" H 9450 1925 50  0001 C CNN
	1    9450 1925
	-1   0    0    1   
$EndComp
$Comp
L power:+5V #PWR0147
U 1 1 5D9002A6
P 9350 1175
F 0 "#PWR0147" H 9350 1025 50  0001 C CNN
F 1 "+5V" V 9365 1303 50  0000 L CNN
F 2 "" H 9350 1175 50  0001 C CNN
F 3 "" H 9350 1175 50  0001 C CNN
	1    9350 1175
	0    -1   -1   0   
$EndComp
Wire Wire Line
	9350 1175 9375 1175
$Comp
L Device:CP1_Small C?
U 1 1 5D9002AD
P 9525 1075
AR Path="/5DECDFAC/5D7CE77A/5D9002AD" Ref="C?"  Part="1" 
AR Path="/5DECDFAC/5D9002AD" Ref="C25"  Part="1" 
F 0 "C25" H 9400 1000 50  0000 C CNN
F 1 "47uF" H 9375 1075 50  0000 C CNN
F 2 "Capacitor_THT:CP_Radial_D5.0mm_P2.50mm" H 9525 1075 50  0001 C CNN
F 3 "~" H 9525 1075 50  0001 C CNN
	1    9525 1075
	-1   0    0    1   
$EndComp
$Comp
L Device:C_Small C?
U 1 1 5D9002B3
P 9375 1075
AR Path="/5DECDFAC/5D7CE77A/5D9002B3" Ref="C?"  Part="1" 
AR Path="/5DECDFAC/5D9002B3" Ref="C22"  Part="1" 
F 0 "C22" H 9500 1000 50  0000 C CNN
F 1 "2.2uF/16v/X5R" H 9725 1075 50  0000 C CNN
F 2 "Capacitor_SMD:C_0402_1005Metric" H 9375 1075 50  0001 C CNN
F 3 "~" H 9375 1075 50  0001 C CNN
	1    9375 1075
	-1   0    0    1   
$EndComp
Connection ~ 9375 1175
Wire Wire Line
	9375 1175 9525 1175
Wire Wire Line
	9525 975  9450 975 
Wire Wire Line
	9450 975  9450 900 
Connection ~ 9450 975 
Wire Wire Line
	9450 975  9375 975 
$Comp
L power:GND #PWR0148
U 1 1 5D9002BF
P 9450 900
F 0 "#PWR0148" H 9450 650 50  0001 C CNN
F 1 "GND" V 9455 772 50  0000 R CNN
F 2 "" H 9450 900 50  0001 C CNN
F 3 "" H 9450 900 50  0001 C CNN
	1    9450 900 
	-1   0    0    1   
$EndComp
Connection ~ 9525 1175
Connection ~ 9525 2200
$Comp
L Device:R_POT_US RV10
U 1 1 5D996408
P 7700 1150
F 0 "RV10" H 7633 1196 50  0000 R CNN
F 1 "10K" H 7633 1105 50  0000 R CNN
F 2 "SynthesizESP:RK09K113004U" H 7700 1150 50  0001 C CNN
F 3 "~" H 7700 1150 50  0001 C CNN
	1    7700 1150
	1    0    0    -1  
$EndComp
$Comp
L Device:R_POT_US RV7
U 1 1 5D999D38
P 6825 1150
F 0 "RV7" H 6758 1196 50  0000 R CNN
F 1 "10K" H 6758 1105 50  0000 R CNN
F 2 "SynthesizESP:RK09K113004U" H 6825 1150 50  0001 C CNN
F 3 "~" H 6825 1150 50  0001 C CNN
	1    6825 1150
	1    0    0    -1  
$EndComp
$Comp
L Device:R_POT_US RV4
U 1 1 5D99A814
P 6000 1125
F 0 "RV4" H 5933 1171 50  0000 R CNN
F 1 "10K" H 5933 1080 50  0000 R CNN
F 2 "SynthesizESP:RK09K113004U" H 6000 1125 50  0001 C CNN
F 3 "~" H 6000 1125 50  0001 C CNN
	1    6000 1125
	1    0    0    -1  
$EndComp
$Comp
L Device:R_POT_US RV1
U 1 1 5D9A8E0D
P 5200 1125
F 0 "RV1" H 5133 1171 50  0000 R CNN
F 1 "10K" H 5133 1080 50  0000 R CNN
F 2 "SynthesizESP:RK09K113004U" H 5200 1125 50  0001 C CNN
F 3 "~" H 5200 1125 50  0001 C CNN
	1    5200 1125
	1    0    0    -1  
$EndComp
$Comp
L Device:R_POT_US RV11
U 1 1 5D9AF86C
P 7725 1850
F 0 "RV11" H 7658 1896 50  0000 R CNN
F 1 "10K" H 7658 1805 50  0000 R CNN
F 2 "SynthesizESP:RK09K113004U" H 7725 1850 50  0001 C CNN
F 3 "~" H 7725 1850 50  0001 C CNN
	1    7725 1850
	1    0    0    -1  
$EndComp
$Comp
L Device:R_POT_US RV8
U 1 1 5D9AF872
P 6850 1850
F 0 "RV8" H 6783 1896 50  0000 R CNN
F 1 "10K" H 6783 1805 50  0000 R CNN
F 2 "SynthesizESP:RK09K113004U" H 6850 1850 50  0001 C CNN
F 3 "~" H 6850 1850 50  0001 C CNN
	1    6850 1850
	1    0    0    -1  
$EndComp
$Comp
L Device:R_POT_US RV5
U 1 1 5D9AF878
P 6025 1850
F 0 "RV5" H 5958 1896 50  0000 R CNN
F 1 "10K" H 5958 1805 50  0000 R CNN
F 2 "SynthesizESP:RK09K113004U" H 6025 1850 50  0001 C CNN
F 3 "~" H 6025 1850 50  0001 C CNN
	1    6025 1850
	1    0    0    -1  
$EndComp
$Comp
L Device:R_POT_US RV2
U 1 1 5D9AF87E
P 5225 1850
F 0 "RV2" H 5158 1896 50  0000 R CNN
F 1 "10K" H 5158 1805 50  0000 R CNN
F 2 "SynthesizESP:RK09K113004U" H 5225 1850 50  0001 C CNN
F 3 "~" H 5225 1850 50  0001 C CNN
	1    5225 1850
	1    0    0    -1  
$EndComp
$Comp
L Device:R_POT_US RV12
U 1 1 5D9BC694
P 7725 2625
F 0 "RV12" H 7658 2671 50  0000 R CNN
F 1 "10K" H 7658 2580 50  0000 R CNN
F 2 "SynthesizESP:RK09K113004U" H 7725 2625 50  0001 C CNN
F 3 "~" H 7725 2625 50  0001 C CNN
	1    7725 2625
	1    0    0    -1  
$EndComp
$Comp
L Device:R_POT_US RV9
U 1 1 5D9BC69A
P 6850 2625
F 0 "RV9" H 6783 2671 50  0000 R CNN
F 1 "10K" H 6783 2580 50  0000 R CNN
F 2 "SynthesizESP:RK09K113004U" H 6850 2625 50  0001 C CNN
F 3 "~" H 6850 2625 50  0001 C CNN
	1    6850 2625
	1    0    0    -1  
$EndComp
$Comp
L Device:R_POT_US RV6
U 1 1 5D9BC6A0
P 6025 2625
F 0 "RV6" H 5958 2671 50  0000 R CNN
F 1 "10K" H 5958 2580 50  0000 R CNN
F 2 "SynthesizESP:RK09K113004U" H 6025 2625 50  0001 C CNN
F 3 "~" H 6025 2625 50  0001 C CNN
	1    6025 2625
	1    0    0    -1  
$EndComp
$Comp
L Device:R_POT_US RV3
U 1 1 5D9BC6A6
P 5225 2625
F 0 "RV3" H 5158 2671 50  0000 R CNN
F 1 "10K" H 5158 2580 50  0000 R CNN
F 2 "SynthesizESP:RK09K113004U" H 5225 2625 50  0001 C CNN
F 3 "~" H 5225 2625 50  0001 C CNN
	1    5225 2625
	1    0    0    -1  
$EndComp
Text GLabel 7850 1150 2    50   Input ~ 0
ANLG3
$Comp
L power:+5V #PWR0149
U 1 1 5D9E1A56
P 4600 975
F 0 "#PWR0149" H 4600 825 50  0001 C CNN
F 1 "+5V" V 4615 1103 50  0000 L CNN
F 2 "" H 4600 975 50  0001 C CNN
F 3 "" H 4600 975 50  0001 C CNN
	1    4600 975 
	0    -1   -1   0   
$EndComp
Text GLabel 6975 1150 2    50   Input ~ 0
ANLG2
Text GLabel 6150 1125 2    50   Input ~ 0
ANLG1
Text GLabel 5350 1125 2    50   Input ~ 0
ANLG0
Text GLabel 5375 1850 2    50   Input ~ 0
ANLG4
Text GLabel 6175 1850 2    50   Input ~ 0
ANLG5
Text GLabel 7000 1850 2    50   Input ~ 0
ANLG6
Text GLabel 7875 1850 2    50   Input ~ 0
ANLG7
Text GLabel 5375 2625 2    50   Input ~ 0
ANLG8
Text GLabel 6175 2625 2    50   Input ~ 0
ANLG9
Text GLabel 7000 2625 2    50   Input ~ 0
ANLG10
Text GLabel 7875 2625 2    50   Input ~ 0
ANLG11
$Comp
L power:GND #PWR0150
U 1 1 5DA9E529
P 4650 2775
F 0 "#PWR0150" H 4650 2525 50  0001 C CNN
F 1 "GND" V 4655 2647 50  0000 R CNN
F 2 "" H 4650 2775 50  0001 C CNN
F 3 "" H 4650 2775 50  0001 C CNN
	1    4650 2775
	0    1    1    0   
$EndComp
Wire Wire Line
	4600 975  4700 975 
Wire Wire Line
	5200 975  6000 975 
Connection ~ 5200 975 
Wire Wire Line
	6000 975  6825 975 
Wire Wire Line
	6825 975  6825 1000
Connection ~ 6000 975 
Wire Wire Line
	6825 975  7700 975 
Wire Wire Line
	7700 975  7700 1000
Connection ~ 6825 975 
Wire Wire Line
	7725 1700 6850 1700
Wire Wire Line
	5225 1700 5225 1675
Connection ~ 6850 1700
Wire Wire Line
	6850 1700 6025 1700
Connection ~ 6025 1700
Wire Wire Line
	6025 1700 5225 1700
Connection ~ 5225 1700
Wire Wire Line
	5225 1700 4700 1700
Wire Wire Line
	4700 1700 4700 975 
Connection ~ 4700 975 
Wire Wire Line
	4700 975  5200 975 
Wire Wire Line
	7725 2475 6850 2475
Connection ~ 6850 2475
Wire Wire Line
	6850 2475 6025 2475
Connection ~ 6025 2475
Wire Wire Line
	6025 2475 5225 2475
Wire Wire Line
	5225 2475 4700 2475
Wire Wire Line
	4700 2475 4700 1700
Connection ~ 5225 2475
Connection ~ 4700 1700
Wire Wire Line
	7700 1300 6825 1300
Wire Wire Line
	4850 1300 4850 2000
Wire Wire Line
	4850 2775 5225 2775
Connection ~ 6825 1300
Wire Wire Line
	6825 1300 4850 1300
Connection ~ 5225 2775
Wire Wire Line
	5225 2775 6025 2775
Connection ~ 6025 2775
Wire Wire Line
	6025 2775 6850 2775
Connection ~ 6850 2775
Wire Wire Line
	6850 2775 7725 2775
Wire Wire Line
	7725 2000 6850 2000
Connection ~ 4850 2000
Wire Wire Line
	4850 2000 4850 2775
Connection ~ 5225 2000
Wire Wire Line
	5225 2000 4850 2000
Connection ~ 6025 2000
Wire Wire Line
	6025 2000 5225 2000
Connection ~ 6850 2000
Wire Wire Line
	6850 2000 6025 2000
Wire Wire Line
	4650 2775 4850 2775
Connection ~ 4850 2775
$Comp
L Device:Rotary_Encoder_Switch SW9
U 1 1 5D7FCD77
P 4750 3950
F 0 "SW9" H 4750 4317 50  0000 C CNN
F 1 "Rotary_Encoder_Switch" H 4750 4226 50  0000 C CNN
F 2 "Rotary_Encoder:RotaryEncoder_Alps_EC12E-Switch_Vertical_H20mm" H 4600 4110 50  0001 C CNN
F 3 "~" H 4750 4210 50  0001 C CNN
	1    4750 3950
	1    0    0    -1  
$EndComp
$Comp
L Device:Rotary_Encoder_Switch SW10
U 1 1 5D7FE5C7
P 4750 4400
F 0 "SW10" H 4750 4150 50  0000 C CNN
F 1 "Rotary_Encoder_Switch" H 4775 4075 50  0000 C CNN
F 2 "Rotary_Encoder:RotaryEncoder_Alps_EC12E-Switch_Vertical_H20mm" H 4600 4560 50  0001 C CNN
F 3 "~" H 4750 4660 50  0001 C CNN
	1    4750 4400
	1    0    0    -1  
$EndComp
Wire Wire Line
	4450 3950 4325 3950
Wire Wire Line
	4325 3950 4325 3525
Wire Wire Line
	4325 3525 4750 3525
Wire Wire Line
	5200 3525 5200 3850
Wire Wire Line
	5200 3850 5050 3850
Wire Wire Line
	4750 3525 4750 3475
Connection ~ 4750 3525
Wire Wire Line
	4750 3525 5200 3525
$Comp
L power:GND #PWR?
U 1 1 5D85F1DF
P 4750 3475
AR Path="/5DECDFAC/5D7CE77A/5D85F1DF" Ref="#PWR?"  Part="1" 
AR Path="/5DECDFAC/5D85F1DF" Ref="#PWR0151"  Part="1" 
F 0 "#PWR0151" H 4750 3225 50  0001 C CNN
F 1 "GND" H 4755 3302 50  0000 C CNN
F 2 "" H 4750 3475 50  0001 C CNN
F 3 "" H 4750 3475 50  0001 C CNN
	1    4750 3475
	-1   0    0    1   
$EndComp
Wire Wire Line
	3725 3850 4450 3850
Wire Wire Line
	4450 4050 4250 4050
Wire Wire Line
	4250 4050 4250 3950
Wire Wire Line
	3575 3950 4250 3950
Wire Wire Line
	5050 4050 5050 4175
Wire Wire Line
	5050 4175 4200 4175
Wire Wire Line
	4200 4175 4200 4050
Wire Wire Line
	3425 4050 4200 4050
Wire Wire Line
	4125 4150 4125 4300
Wire Wire Line
	4125 4300 4450 4300
Wire Wire Line
	3275 4150 4125 4150
Wire Wire Line
	4450 4400 4325 4400
Wire Wire Line
	4325 4400 4325 3950
Connection ~ 4325 3950
Wire Wire Line
	5050 4300 5200 4300
Wire Wire Line
	5200 4300 5200 3850
Connection ~ 5200 3850
Wire Wire Line
	4450 4500 4075 4500
Wire Wire Line
	4075 4500 4075 4250
Wire Wire Line
	3125 4250 4075 4250
Wire Wire Line
	5050 4500 5200 4500
Wire Wire Line
	5200 4500 5200 4800
Wire Wire Line
	5200 4800 4025 4800
Wire Wire Line
	4025 4800 4025 4350
Wire Wire Line
	2975 4350 4025 4350
$Comp
L Switch:SW_SPDT_MSM SW1
U 1 1 5D909F80
P 4300 5150
F 0 "SW1" H 4225 5250 50  0000 C CNN
F 1 "SW_SPDT_MSM" H 4025 5075 50  0000 C CNN
F 2 "Button_Switch_THT:SW_E-Switch_EG1271_DPDT" H 4300 5150 50  0001 C CNN
F 3 "~" H 4300 5150 50  0001 C CNN
	1    4300 5150
	-1   0    0    1   
$EndComp
Wire Wire Line
	4100 5050 3925 5050
Wire Wire Line
	3925 5050 3925 4450
Wire Wire Line
	2825 4450 3925 4450
Wire Wire Line
	3825 4550 3825 5250
Wire Wire Line
	3825 5250 4100 5250
Wire Wire Line
	4500 5150 5400 5150
Wire Wire Line
	5400 5150 5400 3850
Wire Wire Line
	5400 3850 5200 3850
$Comp
L Switch:SW_SPDT_MSM SW2
U 1 1 5D9545D4
P 4400 5725
F 0 "SW2" H 4350 5800 50  0000 C CNN
F 1 "SW_SPDT_MSM" H 4175 5600 50  0000 C CNN
F 2 "Button_Switch_THT:SW_E-Switch_EG1271_DPDT" H 4400 5725 50  0001 C CNN
F 3 "~" H 4400 5725 50  0001 C CNN
	1    4400 5725
	-1   0    0    1   
$EndComp
Wire Wire Line
	4200 5625 3850 5625
Wire Wire Line
	3850 5625 3850 5725
Wire Wire Line
	3550 5825 4200 5825
Wire Wire Line
	4600 5725 4700 5725
$Comp
L power:GND #PWR?
U 1 1 5D99B93F
P 4925 5725
AR Path="/5D99B93F" Ref="#PWR?"  Part="1" 
AR Path="/5DECDFAC/5D99B93F" Ref="#PWR0152"  Part="1" 
F 0 "#PWR0152" H 4925 5475 50  0001 C CNN
F 1 "GND" V 4930 5597 50  0000 R CNN
F 2 "" H 4925 5725 50  0001 C CNN
F 3 "" H 4925 5725 50  0001 C CNN
	1    4925 5725
	0    -1   -1   0   
$EndComp
$Comp
L Switch:SW_Push SW3
U 1 1 5D9A2545
P 4425 5925
F 0 "SW3" H 4800 5925 50  0000 C CNN
F 1 "SW_Push" H 4850 5850 50  0001 C CNN
F 2 "Button_Switch_THT:SW_PUSH_6mm_H13mm" H 4425 6125 50  0001 C CNN
F 3 "~" H 4425 6125 50  0001 C CNN
	1    4425 5925
	1    0    0    -1  
$EndComp
$Comp
L Switch:SW_Push SW4
U 1 1 5D9A3D2F
P 4425 6025
F 0 "SW4" H 4800 6025 50  0000 C CNN
F 1 "SW_Push" H 4425 6219 50  0001 C CNN
F 2 "Button_Switch_THT:SW_PUSH_6mm_H13mm" H 4425 6225 50  0001 C CNN
F 3 "~" H 4425 6225 50  0001 C CNN
	1    4425 6025
	1    0    0    -1  
$EndComp
$Comp
L Switch:SW_Push SW5
U 1 1 5D9A4056
P 4425 6125
F 0 "SW5" H 4800 6125 50  0000 C CNN
F 1 "SW_Push" H 4425 6319 50  0001 C CNN
F 2 "Button_Switch_THT:SW_PUSH_6mm_H13mm" H 4425 6325 50  0001 C CNN
F 3 "~" H 4425 6325 50  0001 C CNN
	1    4425 6125
	1    0    0    -1  
$EndComp
$Comp
L Switch:SW_Push SW6
U 1 1 5D9A42A6
P 4425 6225
F 0 "SW6" H 4800 6225 50  0000 C CNN
F 1 "SW_Push" H 4425 6419 50  0001 C CNN
F 2 "Button_Switch_THT:SW_PUSH_6mm_H13mm" H 4425 6425 50  0001 C CNN
F 3 "~" H 4425 6425 50  0001 C CNN
	1    4425 6225
	1    0    0    -1  
$EndComp
$Comp
L Switch:SW_Push SW7
U 1 1 5D9A454A
P 4425 6325
F 0 "SW7" H 4800 6325 50  0000 C CNN
F 1 "SW_Push" H 4425 6519 50  0001 C CNN
F 2 "Button_Switch_THT:SW_PUSH_6mm_H13mm" H 4425 6525 50  0001 C CNN
F 3 "~" H 4425 6525 50  0001 C CNN
	1    4425 6325
	1    0    0    -1  
$EndComp
$Comp
L Switch:SW_Push SW8
U 1 1 5D9A4840
P 4425 6425
F 0 "SW8" H 4800 6425 50  0000 C CNN
F 1 "SW_Push" H 4425 6619 50  0001 C CNN
F 2 "Button_Switch_THT:SW_PUSH_6mm_H13mm" H 4425 6625 50  0001 C CNN
F 3 "~" H 4425 6625 50  0001 C CNN
	1    4425 6425
	1    0    0    -1  
$EndComp
Wire Wire Line
	4625 6425 4700 6425
Wire Wire Line
	4700 6425 4700 6325
Connection ~ 4700 5725
Wire Wire Line
	4700 5725 4925 5725
Wire Wire Line
	4625 5925 4700 5925
Connection ~ 4700 5925
Wire Wire Line
	4700 5925 4700 5725
Wire Wire Line
	4625 6025 4700 6025
Connection ~ 4700 6025
Wire Wire Line
	4700 6025 4700 5925
Wire Wire Line
	4625 6125 4700 6125
Connection ~ 4700 6125
Wire Wire Line
	4700 6125 4700 6025
Wire Wire Line
	4625 6225 4700 6225
Connection ~ 4700 6225
Wire Wire Line
	4700 6225 4700 6125
Wire Wire Line
	4625 6325 4700 6325
Connection ~ 4700 6325
Wire Wire Line
	4700 6325 4700 6225
Wire Wire Line
	3400 5925 4225 5925
Wire Wire Line
	3250 6025 4225 6025
Wire Wire Line
	3100 6125 4225 6125
Wire Wire Line
	2950 6225 4225 6225
Wire Wire Line
	2800 6325 4225 6325
Wire Wire Line
	2650 6425 4225 6425
$Comp
L Device:LED_Small_ALT D3
U 1 1 5DAB58F5
P 4650 7425
F 0 "D3" H 4750 7475 50  0000 C CNN
F 1 "LED_Small_ALT" H 4650 7569 50  0001 C CNN
F 2 "LED_THT:LED_D3.0mm" V 4650 7425 50  0001 C CNN
F 3 "~" V 4650 7425 50  0001 C CNN
	1    4650 7425
	-1   0    0    1   
$EndComp
$Comp
L Device:LED_Small_ALT D4
U 1 1 5DAB5D3C
P 4650 7300
F 0 "D4" H 4750 7350 50  0000 C CNN
F 1 "LED_Small_ALT" H 4650 7444 50  0001 C CNN
F 2 "LED_THT:LED_D3.0mm" V 4650 7300 50  0001 C CNN
F 3 "~" V 4650 7300 50  0001 C CNN
	1    4650 7300
	-1   0    0    1   
$EndComp
$Comp
L Device:LED_Small_ALT D5
U 1 1 5DAB6270
P 4650 7175
F 0 "D5" H 4750 7225 50  0000 C CNN
F 1 "LED_Small_ALT" H 4650 7319 50  0001 C CNN
F 2 "LED_THT:LED_D3.0mm" V 4650 7175 50  0001 C CNN
F 3 "~" V 4650 7175 50  0001 C CNN
	1    4650 7175
	-1   0    0    1   
$EndComp
$Comp
L Device:LED_Small_ALT D6
U 1 1 5DAE1E68
P 4650 7050
F 0 "D6" H 4750 7100 50  0000 C CNN
F 1 "LED_Small_ALT" H 4650 7194 50  0001 C CNN
F 2 "LED_THT:LED_D3.0mm" V 4650 7050 50  0001 C CNN
F 3 "~" V 4650 7050 50  0001 C CNN
	1    4650 7050
	-1   0    0    1   
$EndComp
$Comp
L Device:LED_Small_ALT D7
U 1 1 5DAE2327
P 4650 6925
F 0 "D7" H 4750 6975 50  0000 C CNN
F 1 "LED_Small_ALT" H 4650 7069 50  0001 C CNN
F 2 "LED_THT:LED_D3.0mm" V 4650 6925 50  0001 C CNN
F 3 "~" V 4650 6925 50  0001 C CNN
	1    4650 6925
	-1   0    0    1   
$EndComp
$Comp
L Device:LED_Small_ALT D8
U 1 1 5DAE39AC
P 4650 6800
F 0 "D8" H 4750 6850 50  0000 C CNN
F 1 "LED_Small_ALT" H 4650 6944 50  0001 C CNN
F 2 "LED_THT:LED_D3.0mm" V 4650 6800 50  0001 C CNN
F 3 "~" V 4650 6800 50  0001 C CNN
	1    4650 6800
	-1   0    0    1   
$EndComp
Wire Wire Line
	4550 6800 4325 6800
Wire Wire Line
	4550 6925 4325 6925
Wire Wire Line
	4550 7425 4325 7425
Wire Wire Line
	4550 7300 4325 7300
Wire Wire Line
	4550 7175 4325 7175
Wire Wire Line
	4550 7050 4325 7050
$Comp
L Device:R_Small_US R?
U 1 1 5DEA8B57
P 4225 6800
AR Path="/5DECDFAC/5D7CE77A/5DEA8B57" Ref="R?"  Part="1" 
AR Path="/5DECDFAC/5DEA8B57" Ref="R48"  Part="1" 
F 0 "R48" V 4300 6725 50  0000 L CNN
F 1 "470" V 4250 6600 50  0000 L CNN
F 2 "Resistor_SMD:R_0805_2012Metric" H 4225 6800 50  0001 C CNN
F 3 "~" H 4225 6800 50  0001 C CNN
	1    4225 6800
	0    -1   -1   0   
$EndComp
$Comp
L Device:R_Small_US R?
U 1 1 5DEA9604
P 4225 6925
AR Path="/5DECDFAC/5D7CE77A/5DEA9604" Ref="R?"  Part="1" 
AR Path="/5DECDFAC/5DEA9604" Ref="R47"  Part="1" 
F 0 "R47" V 4300 6850 50  0000 L CNN
F 1 "470" V 4250 6725 50  0000 L CNN
F 2 "Resistor_SMD:R_0805_2012Metric" H 4225 6925 50  0001 C CNN
F 3 "~" H 4225 6925 50  0001 C CNN
	1    4225 6925
	0    -1   -1   0   
$EndComp
$Comp
L Device:R_Small_US R?
U 1 1 5DEA99F0
P 4225 7050
AR Path="/5DECDFAC/5D7CE77A/5DEA99F0" Ref="R?"  Part="1" 
AR Path="/5DECDFAC/5DEA99F0" Ref="R46"  Part="1" 
F 0 "R46" V 4300 6975 50  0000 L CNN
F 1 "470" V 4250 6850 50  0000 L CNN
F 2 "Resistor_SMD:R_0805_2012Metric" H 4225 7050 50  0001 C CNN
F 3 "~" H 4225 7050 50  0001 C CNN
	1    4225 7050
	0    -1   -1   0   
$EndComp
$Comp
L Device:R_Small_US R?
U 1 1 5DEABABE
P 4225 7175
AR Path="/5DECDFAC/5D7CE77A/5DEABABE" Ref="R?"  Part="1" 
AR Path="/5DECDFAC/5DEABABE" Ref="R45"  Part="1" 
F 0 "R45" V 4300 7100 50  0000 L CNN
F 1 "470" V 4250 6975 50  0000 L CNN
F 2 "Resistor_SMD:R_0805_2012Metric" H 4225 7175 50  0001 C CNN
F 3 "~" H 4225 7175 50  0001 C CNN
	1    4225 7175
	0    -1   -1   0   
$EndComp
$Comp
L Device:R_Small_US R?
U 1 1 5DEABEB1
P 4225 7300
AR Path="/5DECDFAC/5D7CE77A/5DEABEB1" Ref="R?"  Part="1" 
AR Path="/5DECDFAC/5DEABEB1" Ref="R44"  Part="1" 
F 0 "R44" V 4300 7225 50  0000 L CNN
F 1 "470" V 4250 7100 50  0000 L CNN
F 2 "Resistor_SMD:R_0805_2012Metric" H 4225 7300 50  0001 C CNN
F 3 "~" H 4225 7300 50  0001 C CNN
	1    4225 7300
	0    -1   -1   0   
$EndComp
$Comp
L Device:R_Small_US R?
U 1 1 5DEAC307
P 4225 7425
AR Path="/5DECDFAC/5D7CE77A/5DEAC307" Ref="R?"  Part="1" 
AR Path="/5DECDFAC/5DEAC307" Ref="R43"  Part="1" 
F 0 "R43" V 4300 7350 50  0000 L CNN
F 1 "470" V 4250 7225 50  0000 L CNN
F 2 "Resistor_SMD:R_0805_2012Metric" H 4225 7425 50  0001 C CNN
F 3 "~" H 4225 7425 50  0001 C CNN
	1    4225 7425
	0    -1   -1   0   
$EndComp
Connection ~ 4125 7425
Wire Wire Line
	4125 7425 4125 7300
Connection ~ 4125 7300
Wire Wire Line
	4125 7300 4125 7175
Connection ~ 4125 7175
Wire Wire Line
	4125 7175 4125 7050
Connection ~ 4125 7050
Wire Wire Line
	4125 7050 4125 6925
Connection ~ 4125 6925
Wire Wire Line
	4125 6925 4125 6800
Connection ~ 4125 6800
Connection ~ 3700 7075
Wire Wire Line
	4850 6800 4750 6800
Wire Wire Line
	4850 6925 4750 6925
Wire Wire Line
	4850 7050 4750 7050
Wire Wire Line
	4850 7425 4750 7425
Wire Wire Line
	4850 7300 4750 7300
Wire Wire Line
	4850 7175 4750 7175
Text GLabel 4850 7425 2    50   Input ~ 0
P8
Text GLabel 4850 7300 2    50   Input ~ 0
P9
Text GLabel 4850 7175 2    50   Input ~ 0
P10
Text GLabel 4850 7050 2    50   Input ~ 0
P11
Text GLabel 4850 6925 2    50   Input ~ 0
P12
Text GLabel 4850 6800 2    50   Input ~ 0
P13
Text GLabel 4850 7550 2    50   Input ~ 0
P7
Text GLabel 4850 7675 2    50   Input ~ 0
P6
Wire Wire Line
	4850 7550 4750 7550
Wire Wire Line
	4850 7675 4750 7675
$Comp
L Device:R_Small_US R?
U 1 1 5DEACAC6
P 4225 7675
AR Path="/5DECDFAC/5D7CE77A/5DEACAC6" Ref="R?"  Part="1" 
AR Path="/5DECDFAC/5DEACAC6" Ref="R41"  Part="1" 
F 0 "R41" V 4300 7600 50  0000 L CNN
F 1 "470" V 4250 7475 50  0000 L CNN
F 2 "Resistor_SMD:R_0805_2012Metric" H 4225 7675 50  0001 C CNN
F 3 "~" H 4225 7675 50  0001 C CNN
	1    4225 7675
	0    -1   -1   0   
$EndComp
Wire Wire Line
	4125 7550 4125 7425
Wire Wire Line
	4125 7675 4125 7550
Connection ~ 4125 7550
$Comp
L Device:R_Small_US R?
U 1 1 5DEAC707
P 4225 7550
AR Path="/5DECDFAC/5D7CE77A/5DEAC707" Ref="R?"  Part="1" 
AR Path="/5DECDFAC/5DEAC707" Ref="R42"  Part="1" 
F 0 "R42" V 4300 7475 50  0000 L CNN
F 1 "470" V 4250 7350 50  0000 L CNN
F 2 "Resistor_SMD:R_0805_2012Metric" H 4225 7550 50  0001 C CNN
F 3 "~" H 4225 7550 50  0001 C CNN
	1    4225 7550
	0    -1   -1   0   
$EndComp
Wire Wire Line
	4550 7550 4325 7550
Wire Wire Line
	4550 7675 4325 7675
$Comp
L Device:LED_Small_ALT D2
U 1 1 5DAB5218
P 4650 7550
F 0 "D2" H 4750 7600 50  0000 C CNN
F 1 "LED_Small_ALT" H 4650 7694 50  0001 C CNN
F 2 "LED_THT:LED_D3.0mm" V 4650 7550 50  0001 C CNN
F 3 "~" V 4650 7550 50  0001 C CNN
	1    4650 7550
	-1   0    0    1   
$EndComp
$Comp
L Device:LED_Small_ALT D1
U 1 1 5DAB16CB
P 4650 7675
F 0 "D1" H 4750 7725 50  0000 C CNN
F 1 "LED_Small_ALT" H 4650 7819 50  0001 C CNN
F 2 "LED_THT:LED_D3.0mm" V 4650 7675 50  0001 C CNN
F 3 "~" V 4650 7675 50  0001 C CNN
	1    4650 7675
	-1   0    0    1   
$EndComp
$Comp
L Device:LED_Small_ALT D9
U 1 1 5E076A7D
P 4650 6650
F 0 "D9" H 4750 6700 50  0000 C CNN
F 1 "LED_Small_ALT" H 4650 6794 50  0001 C CNN
F 2 "LED_THT:LED_D3.0mm" V 4650 6650 50  0001 C CNN
F 3 "~" V 4650 6650 50  0001 C CNN
	1    4650 6650
	-1   0    0    1   
$EndComp
$Comp
L Device:LED_Small_ALT D10
U 1 1 5E076A83
P 4650 6525
F 0 "D10" H 4775 6575 50  0000 C CNN
F 1 "LED_Small_ALT" H 4650 6669 50  0001 C CNN
F 2 "LED_THT:LED_D3.0mm" V 4650 6525 50  0001 C CNN
F 3 "~" V 4650 6525 50  0001 C CNN
	1    4650 6525
	-1   0    0    1   
$EndComp
Wire Wire Line
	4550 6650 4325 6650
Wire Wire Line
	4550 6525 4325 6525
$Comp
L Device:R_Small_US R?
U 1 1 5E076A8B
P 4225 6525
AR Path="/5DECDFAC/5D7CE77A/5E076A8B" Ref="R?"  Part="1" 
AR Path="/5DECDFAC/5E076A8B" Ref="R50"  Part="1" 
F 0 "R50" V 4300 6450 50  0000 L CNN
F 1 "470" V 4250 6325 50  0000 L CNN
F 2 "Resistor_SMD:R_0805_2012Metric" H 4225 6525 50  0001 C CNN
F 3 "~" H 4225 6525 50  0001 C CNN
	1    4225 6525
	0    -1   -1   0   
$EndComp
$Comp
L Device:R_Small_US R?
U 1 1 5E076A91
P 4225 6650
AR Path="/5DECDFAC/5D7CE77A/5E076A91" Ref="R?"  Part="1" 
AR Path="/5DECDFAC/5E076A91" Ref="R49"  Part="1" 
F 0 "R49" V 4300 6575 50  0000 L CNN
F 1 "470" V 4250 6450 50  0000 L CNN
F 2 "Resistor_SMD:R_0805_2012Metric" H 4225 6650 50  0001 C CNN
F 3 "~" H 4225 6650 50  0001 C CNN
	1    4225 6650
	0    -1   -1   0   
$EndComp
Wire Wire Line
	4850 6650 4750 6650
Wire Wire Line
	4850 6525 4750 6525
Text GLabel 4850 6650 2    50   Input ~ 0
P14
Text GLabel 4850 6525 2    50   Input ~ 0
P15
Wire Wire Line
	4125 6525 4125 6650
Connection ~ 4125 6650
$Comp
L DS2408S+:DS2408S+ IC?
U 1 1 5E219167
P 6625 4175
AR Path="/5DECDFAC/5D7CE77A/5E219167" Ref="IC?"  Part="1" 
AR Path="/5DECDFAC/5E219167" Ref="IC6"  Part="1" 
F 0 "IC6" H 7175 4440 50  0000 C CNN
F 1 "DS2408S+" H 7175 4349 50  0000 C CNN
F 2 "SOIC127P600X175-16N" H 7575 4275 50  0001 L CNN
F 3 "http://datasheets.maximintegrated.com/en/ds/DS2408.pdf" H 7575 4175 50  0001 L CNN
F 4 "1-Wire 8-Channel Addressable Switch" H 7575 4075 50  0001 L CNN "Description"
F 5 "1.75" H 7575 3975 50  0001 L CNN "Height"
F 6 "Maxim Integrated" H 7575 3875 50  0001 L CNN "Manufacturer_Name"
F 7 "DS2408S+" H 7575 3775 50  0001 L CNN "Manufacturer_Part_Number"
F 8 "700-DS2408S+" H 7575 3675 50  0001 L CNN "Mouser Part Number"
F 9 "https://www.mouser.com/Search/Refine.aspx?Keyword=700-DS2408S%2B" H 7575 3575 50  0001 L CNN "Mouser Price/Stock"
F 10 "7327529P" H 7575 3475 50  0001 L CNN "RS Part Number"
F 11 "http://uk.rs-online.com/web/p/products/7327529P" H 7575 3375 50  0001 L CNN "RS Price/Stock"
	1    6625 4175
	1    0    0    -1  
$EndComp
Wire Wire Line
	6625 4775 6425 4775
Wire Wire Line
	6625 4175 6425 4175
Wire Wire Line
	6425 4175 6425 3975
Wire Wire Line
	6625 4925 6425 4925
$Comp
L power:GND #PWR?
U 1 1 5E219171
P 6075 4075
AR Path="/5DECDFAC/5D7CE77A/5E219171" Ref="#PWR?"  Part="1" 
AR Path="/5DECDFAC/5E219171" Ref="#PWR0153"  Part="1" 
F 0 "#PWR0153" H 6075 3825 50  0001 C CNN
F 1 "GND" H 6080 3902 50  0000 C CNN
F 2 "" H 6075 4075 50  0001 C CNN
F 3 "" H 6075 4075 50  0001 C CNN
	1    6075 4075
	1    0    0    -1  
$EndComp
$Comp
L power:GND #PWR?
U 1 1 5E219177
P 6425 4925
AR Path="/5DECDFAC/5D7CE77A/5E219177" Ref="#PWR?"  Part="1" 
AR Path="/5DECDFAC/5E219177" Ref="#PWR0154"  Part="1" 
F 0 "#PWR0154" H 6425 4675 50  0001 C CNN
F 1 "GND" H 6430 4752 50  0000 C CNN
F 2 "" H 6425 4925 50  0001 C CNN
F 3 "" H 6425 4925 50  0001 C CNN
	1    6425 4925
	1    0    0    -1  
$EndComp
Wire Wire Line
	7925 4875 7925 5225
$Comp
L Device:R_Small_US R?
U 1 1 5E21917E
P 7925 5325
AR Path="/5DECDFAC/5D7CE77A/5E21917E" Ref="R?"  Part="1" 
AR Path="/5DECDFAC/5E21917E" Ref="R52"  Part="1" 
F 0 "R52" H 7925 5450 50  0000 L CNN
F 1 "10k" H 7875 5200 50  0000 L CNN
F 2 "Resistor_SMD:R_0805_2012Metric" H 7925 5325 50  0001 C CNN
F 3 "~" H 7925 5325 50  0001 C CNN
	1    7925 5325
	1    0    0    -1  
$EndComp
$Comp
L Device:R_Small_US R?
U 1 1 5E219184
P 8075 5325
AR Path="/5DECDFAC/5D7CE77A/5E219184" Ref="R?"  Part="1" 
AR Path="/5DECDFAC/5E219184" Ref="R53"  Part="1" 
F 0 "R53" H 8075 5450 50  0000 L CNN
F 1 "10k" H 8025 5200 50  0000 L CNN
F 2 "Resistor_SMD:R_0805_2012Metric" H 8075 5325 50  0001 C CNN
F 3 "~" H 8075 5325 50  0001 C CNN
	1    8075 5325
	1    0    0    -1  
$EndComp
Wire Wire Line
	8075 4775 8075 5225
Wire Wire Line
	8225 4675 8225 5225
Wire Wire Line
	8375 4575 8375 5225
Wire Wire Line
	8525 4475 8525 5225
Wire Wire Line
	8675 4375 8675 5225
Wire Wire Line
	8825 4275 8825 5225
Wire Wire Line
	8975 4175 8975 5225
Wire Wire Line
	7925 5425 7925 5525
Wire Wire Line
	8975 5525 8975 5425
Wire Wire Line
	8825 5425 8825 5525
Connection ~ 8825 5525
Wire Wire Line
	8825 5525 8975 5525
Wire Wire Line
	8675 5425 8675 5525
Connection ~ 8675 5525
Wire Wire Line
	8675 5525 8825 5525
Wire Wire Line
	8525 5425 8525 5525
Connection ~ 8525 5525
Wire Wire Line
	8525 5525 8675 5525
Wire Wire Line
	8375 5425 8375 5525
Connection ~ 8375 5525
Wire Wire Line
	8375 5525 8525 5525
Wire Wire Line
	8225 5425 8225 5525
Connection ~ 8225 5525
Wire Wire Line
	8225 5525 8375 5525
Wire Wire Line
	8075 5425 8075 5525
Connection ~ 8075 5525
Wire Wire Line
	8075 5525 8225 5525
Wire Wire Line
	7675 5525 7675 5275
Wire Wire Line
	7675 5275 7525 5275
Wire Wire Line
	7525 5275 7525 5325
$Comp
L Device:R_Small_US R?
U 1 1 5E2191A8
P 8225 5325
AR Path="/5DECDFAC/5D7CE77A/5E2191A8" Ref="R?"  Part="1" 
AR Path="/5DECDFAC/5E2191A8" Ref="R54"  Part="1" 
F 0 "R54" H 8225 5450 50  0000 L CNN
F 1 "10k" H 8175 5200 50  0000 L CNN
F 2 "Resistor_SMD:R_0805_2012Metric" H 8225 5325 50  0001 C CNN
F 3 "~" H 8225 5325 50  0001 C CNN
	1    8225 5325
	1    0    0    -1  
$EndComp
$Comp
L Device:R_Small_US R?
U 1 1 5E2191AE
P 8375 5325
AR Path="/5DECDFAC/5D7CE77A/5E2191AE" Ref="R?"  Part="1" 
AR Path="/5DECDFAC/5E2191AE" Ref="R55"  Part="1" 
F 0 "R55" H 8375 5450 50  0000 L CNN
F 1 "10k" H 8325 5200 50  0000 L CNN
F 2 "Resistor_SMD:R_0805_2012Metric" H 8375 5325 50  0001 C CNN
F 3 "~" H 8375 5325 50  0001 C CNN
	1    8375 5325
	1    0    0    -1  
$EndComp
$Comp
L Device:R_Small_US R?
U 1 1 5E2191B4
P 8525 5325
AR Path="/5DECDFAC/5D7CE77A/5E2191B4" Ref="R?"  Part="1" 
AR Path="/5DECDFAC/5E2191B4" Ref="R56"  Part="1" 
F 0 "R56" H 8525 5450 50  0000 L CNN
F 1 "10k" H 8475 5200 50  0000 L CNN
F 2 "Resistor_SMD:R_0805_2012Metric" H 8525 5325 50  0001 C CNN
F 3 "~" H 8525 5325 50  0001 C CNN
	1    8525 5325
	1    0    0    -1  
$EndComp
$Comp
L Device:R_Small_US R?
U 1 1 5E2191BA
P 8675 5325
AR Path="/5DECDFAC/5D7CE77A/5E2191BA" Ref="R?"  Part="1" 
AR Path="/5DECDFAC/5E2191BA" Ref="R57"  Part="1" 
F 0 "R57" H 8675 5450 50  0000 L CNN
F 1 "10k" H 8625 5200 50  0000 L CNN
F 2 "Resistor_SMD:R_0805_2012Metric" H 8675 5325 50  0001 C CNN
F 3 "~" H 8675 5325 50  0001 C CNN
	1    8675 5325
	1    0    0    -1  
$EndComp
$Comp
L Device:R_Small_US R?
U 1 1 5E2191C0
P 8825 5325
AR Path="/5DECDFAC/5D7CE77A/5E2191C0" Ref="R?"  Part="1" 
AR Path="/5DECDFAC/5E2191C0" Ref="R58"  Part="1" 
F 0 "R58" H 8825 5450 50  0000 L CNN
F 1 "10k" H 8775 5200 50  0000 L CNN
F 2 "Resistor_SMD:R_0805_2012Metric" H 8825 5325 50  0001 C CNN
F 3 "~" H 8825 5325 50  0001 C CNN
	1    8825 5325
	1    0    0    -1  
$EndComp
$Comp
L Device:R_Small_US R?
U 1 1 5E2191C6
P 8975 5325
AR Path="/5DECDFAC/5D7CE77A/5E2191C6" Ref="R?"  Part="1" 
AR Path="/5DECDFAC/5E2191C6" Ref="R59"  Part="1" 
F 0 "R59" H 8975 5450 50  0000 L CNN
F 1 "10k" H 8925 5200 50  0000 L CNN
F 2 "Resistor_SMD:R_0805_2012Metric" H 8975 5325 50  0001 C CNN
F 3 "~" H 8975 5325 50  0001 C CNN
	1    8975 5325
	1    0    0    -1  
$EndComp
Text GLabel 9125 4075 1    50   Input ~ 0
P16
Text GLabel 9275 4275 1    50   Input ~ 0
P17
Text GLabel 9125 4375 2    50   Input ~ 0
P18
Text GLabel 9125 4475 2    50   Input ~ 0
P19
Text GLabel 9125 4575 2    50   Input ~ 0
P20
Text GLabel 9125 4675 2    50   Input ~ 0
P21
Text GLabel 9125 4775 2    50   Input ~ 0
P22
Text GLabel 9125 4875 2    50   Input ~ 0
P23
$Comp
L power:+5V #PWR?
U 1 1 5E2191D4
P 7525 5325
AR Path="/5DECDFAC/5D7CE77A/5E2191D4" Ref="#PWR?"  Part="1" 
AR Path="/5DECDFAC/5E2191D4" Ref="#PWR0155"  Part="1" 
F 0 "#PWR0155" H 7525 5175 50  0001 C CNN
F 1 "+5V" H 7540 5498 50  0000 C CNN
F 2 "" H 7525 5325 50  0001 C CNN
F 3 "" H 7525 5325 50  0001 C CNN
	1    7525 5325
	1    0    0    1   
$EndComp
$Comp
L Device:CP1_Small C?
U 1 1 5E2191DA
P 6325 3825
AR Path="/5DECDFAC/5D7CE77A/5E2191DA" Ref="C?"  Part="1" 
AR Path="/5DECDFAC/5E2191DA" Ref="C27"  Part="1" 
F 0 "C27" V 6275 3725 50  0000 C CNN
F 1 "47uF" V 6188 3825 50  0000 C CNN
F 2 "Capacitor_THT:CP_Radial_D5.0mm_P2.50mm" H 6325 3825 50  0001 C CNN
F 3 "~" H 6325 3825 50  0001 C CNN
	1    6325 3825
	0    1    1    0   
$EndComp
Connection ~ 8075 4775
Connection ~ 8225 4675
Connection ~ 8375 4575
Connection ~ 8525 4475
Connection ~ 8675 4375
Connection ~ 8825 4275
Connection ~ 8975 4175
Wire Wire Line
	8975 4175 9125 4175
Wire Wire Line
	7725 4775 8075 4775
Wire Wire Line
	7725 4675 8225 4675
Wire Wire Line
	7725 4575 8375 4575
Wire Wire Line
	7725 4475 8525 4475
Wire Wire Line
	7725 4375 8675 4375
Wire Wire Line
	7725 4275 8825 4275
Wire Wire Line
	7725 4175 8975 4175
Connection ~ 7925 4875
Connection ~ 7925 5525
Wire Wire Line
	7925 5525 8075 5525
Wire Wire Line
	7725 4875 7925 4875
Wire Wire Line
	7725 5025 7775 5025
Wire Wire Line
	7775 5025 7775 5225
Wire Wire Line
	7675 5525 7775 5525
$Comp
L Device:R_Small_US R?
U 1 1 5E2191F6
P 7775 5325
AR Path="/5DECDFAC/5D7CE77A/5E2191F6" Ref="R?"  Part="1" 
AR Path="/5DECDFAC/5E2191F6" Ref="R51"  Part="1" 
F 0 "R51" H 7775 5450 50  0000 L CNN
F 1 "10k" H 7725 5200 50  0000 L CNN
F 2 "Resistor_SMD:R_0805_2012Metric" H 7775 5325 50  0001 C CNN
F 3 "~" H 7775 5325 50  0001 C CNN
	1    7775 5325
	1    0    0    -1  
$EndComp
Wire Wire Line
	7775 5425 7775 5525
Connection ~ 7775 5525
Wire Wire Line
	7775 5525 7925 5525
$Comp
L Device:C_Small C?
U 1 1 5E2191FF
P 6325 3975
AR Path="/5DECDFAC/5D7CE77A/5E2191FF" Ref="C?"  Part="1" 
AR Path="/5DECDFAC/5E2191FF" Ref="C28"  Part="1" 
F 0 "C28" V 6275 3875 50  0000 C CNN
F 1 "2.2uF/16v/X5R" V 6425 4125 50  0000 C CNN
F 2 "Capacitor_SMD:C_0402_1005Metric" H 6325 3975 50  0001 C CNN
F 3 "~" H 6325 3975 50  0001 C CNN
	1    6325 3975
	0    1    1    0   
$EndComp
Connection ~ 6425 3975
Wire Wire Line
	6425 3975 6425 3825
Wire Wire Line
	6225 3975 6075 3975
Wire Wire Line
	6075 3975 6075 4075
Wire Wire Line
	6075 3825 6075 3975
Connection ~ 6075 3975
Text GLabel 6425 4775 0    50   BiDi ~ 0
1W-8CH-IO1
$Comp
L Switch:SW_SPDT_MSM SW11
U 1 1 5E21920C
P 9675 4175
F 0 "SW11" H 9600 4100 50  0000 C CNN
F 1 "SW_SPDT_MSM" H 9650 4250 50  0000 C CNN
F 2 "Button_Switch_THT:SW_E-Switch_EG1271_DPDT" H 9675 4175 50  0001 C CNN
F 3 "~" H 9675 4175 50  0001 C CNN
	1    9675 4175
	-1   0    0    1   
$EndComp
Wire Wire Line
	9475 4075 9125 4075
Wire Wire Line
	9125 4075 9125 4175
Wire Wire Line
	8825 4275 9475 4275
Wire Wire Line
	9875 4175 9975 4175
$Comp
L power:GND #PWR?
U 1 1 5E219216
P 10200 4175
AR Path="/5E219216" Ref="#PWR?"  Part="1" 
AR Path="/5DECDFAC/5E219216" Ref="#PWR0156"  Part="1" 
F 0 "#PWR0156" H 10200 3925 50  0001 C CNN
F 1 "GND" V 10205 4047 50  0000 R CNN
F 2 "" H 10200 4175 50  0001 C CNN
F 3 "" H 10200 4175 50  0001 C CNN
	1    10200 4175
	0    -1   -1   0   
$EndComp
$Comp
L Switch:SW_Push SW12
U 1 1 5E21921C
P 9700 4375
F 0 "SW12" H 10075 4375 50  0000 C CNN
F 1 "SW_Push" H 10125 4300 50  0001 C CNN
F 2 "Button_Switch_THT:SW_PUSH_6mm_H13mm" H 9700 4575 50  0001 C CNN
F 3 "~" H 9700 4575 50  0001 C CNN
	1    9700 4375
	1    0    0    -1  
$EndComp
$Comp
L Switch:SW_Push SW13
U 1 1 5E219222
P 9700 4475
F 0 "SW13" H 10075 4475 50  0000 C CNN
F 1 "SW_Push" H 9700 4669 50  0001 C CNN
F 2 "Button_Switch_THT:SW_PUSH_6mm_H13mm" H 9700 4675 50  0001 C CNN
F 3 "~" H 9700 4675 50  0001 C CNN
	1    9700 4475
	1    0    0    -1  
$EndComp
$Comp
L Switch:SW_Push SW14
U 1 1 5E219228
P 9700 4575
F 0 "SW14" H 10075 4575 50  0000 C CNN
F 1 "SW_Push" H 9700 4769 50  0001 C CNN
F 2 "Button_Switch_THT:SW_PUSH_6mm_H13mm" H 9700 4775 50  0001 C CNN
F 3 "~" H 9700 4775 50  0001 C CNN
	1    9700 4575
	1    0    0    -1  
$EndComp
$Comp
L Switch:SW_Push SW15
U 1 1 5E21922E
P 9700 4675
F 0 "SW15" H 10075 4675 50  0000 C CNN
F 1 "SW_Push" H 9700 4869 50  0001 C CNN
F 2 "Button_Switch_THT:SW_PUSH_6mm_H13mm" H 9700 4875 50  0001 C CNN
F 3 "~" H 9700 4875 50  0001 C CNN
	1    9700 4675
	1    0    0    -1  
$EndComp
$Comp
L Switch:SW_Push SW16
U 1 1 5E219234
P 9700 4775
F 0 "SW16" H 10075 4775 50  0000 C CNN
F 1 "SW_Push" H 9700 4969 50  0001 C CNN
F 2 "Button_Switch_THT:SW_PUSH_6mm_H13mm" H 9700 4975 50  0001 C CNN
F 3 "~" H 9700 4975 50  0001 C CNN
	1    9700 4775
	1    0    0    -1  
$EndComp
$Comp
L Switch:SW_Push SW17
U 1 1 5E21923A
P 9700 4875
F 0 "SW17" H 10075 4875 50  0000 C CNN
F 1 "SW_Push" H 9700 5069 50  0001 C CNN
F 2 "Button_Switch_THT:SW_PUSH_6mm_H13mm" H 9700 5075 50  0001 C CNN
F 3 "~" H 9700 5075 50  0001 C CNN
	1    9700 4875
	1    0    0    -1  
$EndComp
Wire Wire Line
	9900 4875 9975 4875
Wire Wire Line
	9975 4875 9975 4775
Connection ~ 9975 4175
Wire Wire Line
	9975 4175 10200 4175
Wire Wire Line
	9900 4375 9975 4375
Connection ~ 9975 4375
Wire Wire Line
	9975 4375 9975 4175
Wire Wire Line
	9900 4475 9975 4475
Connection ~ 9975 4475
Wire Wire Line
	9975 4475 9975 4375
Wire Wire Line
	9900 4575 9975 4575
Connection ~ 9975 4575
Wire Wire Line
	9975 4575 9975 4475
Wire Wire Line
	9900 4675 9975 4675
Connection ~ 9975 4675
Wire Wire Line
	9975 4675 9975 4575
Wire Wire Line
	9900 4775 9975 4775
Connection ~ 9975 4775
Wire Wire Line
	9975 4775 9975 4675
Wire Wire Line
	8675 4375 9500 4375
Wire Wire Line
	8525 4475 9500 4475
Wire Wire Line
	8375 4575 9500 4575
Wire Wire Line
	8225 4675 9500 4675
Wire Wire Line
	8075 4775 9500 4775
Wire Wire Line
	7925 4875 9500 4875
$Comp
L Device:LED_Small_ALT D11
U 1 1 5E219259
P 9725 5150
F 0 "D11" H 9850 5200 50  0000 C CNN
F 1 "LED_Small_ALT" H 9725 5294 50  0001 C CNN
F 2 "LED_THT:LED_D3.0mm" V 9725 5150 50  0001 C CNN
F 3 "~" V 9725 5150 50  0001 C CNN
	1    9725 5150
	1    0    0    -1  
$EndComp
$Comp
L Device:LED_Small_ALT D12
U 1 1 5E21925F
P 9725 5300
F 0 "D12" H 9850 5350 50  0000 C CNN
F 1 "LED_Small_ALT" H 9725 5444 50  0001 C CNN
F 2 "LED_THT:LED_D3.0mm" V 9725 5300 50  0001 C CNN
F 3 "~" V 9725 5300 50  0001 C CNN
	1    9725 5300
	1    0    0    -1  
$EndComp
$Comp
L Device:LED_Small_ALT D13
U 1 1 5E219265
P 9725 5450
F 0 "D13" H 9850 5500 50  0000 C CNN
F 1 "LED_Small_ALT" H 9725 5594 50  0001 C CNN
F 2 "LED_THT:LED_D3.0mm" V 9725 5450 50  0001 C CNN
F 3 "~" V 9725 5450 50  0001 C CNN
	1    9725 5450
	1    0    0    -1  
$EndComp
$Comp
L Device:LED_Small_ALT D14
U 1 1 5E21926B
P 9725 5600
F 0 "D14" H 9850 5650 50  0000 C CNN
F 1 "LED_Small_ALT" H 9725 5744 50  0001 C CNN
F 2 "LED_THT:LED_D3.0mm" V 9725 5600 50  0001 C CNN
F 3 "~" V 9725 5600 50  0001 C CNN
	1    9725 5600
	1    0    0    -1  
$EndComp
$Comp
L Device:LED_Small_ALT D16
U 1 1 5E219277
P 9725 5900
F 0 "D16" H 9850 5950 50  0000 C CNN
F 1 "LED_Small_ALT" H 9725 6044 50  0001 C CNN
F 2 "LED_THT:LED_D3.0mm" V 9725 5900 50  0001 C CNN
F 3 "~" V 9725 5900 50  0001 C CNN
	1    9725 5900
	1    0    0    -1  
$EndComp
Wire Wire Line
	9825 5900 10050 5900
Wire Wire Line
	9825 5150 10050 5150
Wire Wire Line
	9825 5300 10050 5300
Wire Wire Line
	9825 5450 10050 5450
Wire Wire Line
	9825 5600 10050 5600
Wire Wire Line
	10250 6200 10475 6200
$Comp
L Device:R_Small_US R?
U 1 1 5E219285
P 10150 5900
AR Path="/5DECDFAC/5D7CE77A/5E219285" Ref="R?"  Part="1" 
AR Path="/5DECDFAC/5E219285" Ref="R65"  Part="1" 
F 0 "R65" V 10125 6000 50  0000 L CNN
F 1 "470" V 10075 5850 50  0000 L CNN
F 2 "Resistor_SMD:R_0805_2012Metric" H 10150 5900 50  0001 C CNN
F 3 "~" H 10150 5900 50  0001 C CNN
	1    10150 5900
	0    1    1    0   
$EndComp
$Comp
L Device:R_Small_US R?
U 1 1 5E219291
P 10150 5600
AR Path="/5DECDFAC/5D7CE77A/5E219291" Ref="R?"  Part="1" 
AR Path="/5DECDFAC/5E219291" Ref="R63"  Part="1" 
F 0 "R63" V 10125 5700 50  0000 L CNN
F 1 "470" V 10075 5550 50  0000 L CNN
F 2 "Resistor_SMD:R_0805_2012Metric" H 10150 5600 50  0001 C CNN
F 3 "~" H 10150 5600 50  0001 C CNN
	1    10150 5600
	0    1    1    0   
$EndComp
$Comp
L Device:R_Small_US R?
U 1 1 5E219297
P 10150 5450
AR Path="/5DECDFAC/5D7CE77A/5E219297" Ref="R?"  Part="1" 
AR Path="/5DECDFAC/5E219297" Ref="R62"  Part="1" 
F 0 "R62" V 10125 5550 50  0000 L CNN
F 1 "470" V 10075 5400 50  0000 L CNN
F 2 "Resistor_SMD:R_0805_2012Metric" H 10150 5450 50  0001 C CNN
F 3 "~" H 10150 5450 50  0001 C CNN
	1    10150 5450
	0    1    1    0   
$EndComp
$Comp
L Device:R_Small_US R?
U 1 1 5E21929D
P 10150 5300
AR Path="/5DECDFAC/5D7CE77A/5E21929D" Ref="R?"  Part="1" 
AR Path="/5DECDFAC/5E21929D" Ref="R61"  Part="1" 
F 0 "R61" V 10125 5400 50  0000 L CNN
F 1 "470" V 10075 5250 50  0000 L CNN
F 2 "Resistor_SMD:R_0805_2012Metric" H 10150 5300 50  0001 C CNN
F 3 "~" H 10150 5300 50  0001 C CNN
	1    10150 5300
	0    1    1    0   
$EndComp
$Comp
L Device:R_Small_US R?
U 1 1 5E2192A3
P 10150 5150
AR Path="/5DECDFAC/5D7CE77A/5E2192A3" Ref="R?"  Part="1" 
AR Path="/5DECDFAC/5E2192A3" Ref="R60"  Part="1" 
F 0 "R60" V 10125 5250 50  0000 L CNN
F 1 "470" V 10075 5100 50  0000 L CNN
F 2 "Resistor_SMD:R_0805_2012Metric" H 10150 5150 50  0001 C CNN
F 3 "~" H 10150 5150 50  0001 C CNN
	1    10150 5150
	0    1    1    0   
$EndComp
Wire Wire Line
	9525 5900 9625 5900
Wire Wire Line
	9525 5600 9625 5600
Wire Wire Line
	9525 5150 9625 5150
Wire Wire Line
	9525 5300 9625 5300
Wire Wire Line
	9525 5450 9625 5450
Text GLabel 9525 5150 0    50   Input ~ 0
P16
Text GLabel 9525 5300 0    50   Input ~ 0
P17
Text GLabel 9525 5450 0    50   Input ~ 0
P18
Text GLabel 9525 5600 0    50   Input ~ 0
P19
Text GLabel 9525 5900 0    50   Input ~ 0
P21
$Comp
L Device:LED_Small_ALT D17
U 1 1 5E2192E3
P 9725 6050
F 0 "D17" H 9850 6100 50  0000 C CNN
F 1 "LED_Small_ALT" H 9725 6194 50  0001 C CNN
F 2 "LED_THT:LED_D3.0mm" V 9725 6050 50  0001 C CNN
F 3 "~" V 9725 6050 50  0001 C CNN
	1    9725 6050
	1    0    0    -1  
$EndComp
$Comp
L Device:LED_Small_ALT D18
U 1 1 5E2192E9
P 9725 6200
F 0 "D18" H 9850 6250 50  0000 C CNN
F 1 "LED_Small_ALT" H 9725 6344 50  0001 C CNN
F 2 "LED_THT:LED_D3.0mm" V 9725 6200 50  0001 C CNN
F 3 "~" V 9725 6200 50  0001 C CNN
	1    9725 6200
	1    0    0    -1  
$EndComp
Wire Wire Line
	9825 6050 10050 6050
Wire Wire Line
	9825 6200 10050 6200
$Comp
L Device:R_Small_US R?
U 1 1 5E2192F1
P 10150 6200
AR Path="/5DECDFAC/5D7CE77A/5E2192F1" Ref="R?"  Part="1" 
AR Path="/5DECDFAC/5E2192F1" Ref="R67"  Part="1" 
F 0 "R67" V 10125 6300 50  0000 L CNN
F 1 "470" V 10075 6150 50  0000 L CNN
F 2 "Resistor_SMD:R_0805_2012Metric" H 10150 6200 50  0001 C CNN
F 3 "~" H 10150 6200 50  0001 C CNN
	1    10150 6200
	0    1    1    0   
$EndComp
$Comp
L Device:R_Small_US R?
U 1 1 5E2192F7
P 10150 6050
AR Path="/5DECDFAC/5D7CE77A/5E2192F7" Ref="R?"  Part="1" 
AR Path="/5DECDFAC/5E2192F7" Ref="R66"  Part="1" 
F 0 "R66" V 10125 6150 50  0000 L CNN
F 1 "470" V 10075 6000 50  0000 L CNN
F 2 "Resistor_SMD:R_0805_2012Metric" H 10150 6050 50  0001 C CNN
F 3 "~" H 10150 6050 50  0001 C CNN
	1    10150 6050
	0    1    1    0   
$EndComp
Wire Wire Line
	9525 6050 9625 6050
Wire Wire Line
	9525 6200 9625 6200
Text GLabel 9525 6050 0    50   Input ~ 0
P22
Text GLabel 9525 6200 0    50   Input ~ 0
P23
$Comp
L power:+5V #PWR?
U 1 1 5E245B93
P 6600 3750
AR Path="/5DECDFAC/5D7CE77A/5E245B93" Ref="#PWR?"  Part="1" 
AR Path="/5DECDFAC/5E245B93" Ref="#PWR0157"  Part="1" 
F 0 "#PWR0157" H 6600 3600 50  0001 C CNN
F 1 "+5V" H 6615 3923 50  0000 C CNN
F 2 "" H 6600 3750 50  0001 C CNN
F 3 "" H 6600 3750 50  0001 C CNN
	1    6600 3750
	1    0    0    -1  
$EndComp
Connection ~ 6425 3825
Wire Wire Line
	6600 3750 6425 3750
Wire Wire Line
	6425 3750 6425 3825
Wire Wire Line
	6075 3825 6225 3825
$Comp
L SmartCeva_1.0-eagle-import:1X4-BIG CN1
U 1 1 5E436025
P 2900 2700
F 0 "CN1" H 3128 2696 50  0000 L CNN
F 1 "1X4-BIG" H 3128 2605 50  0000 L CNN
F 2 "SmartCeva_1.0:1X04-BIG" H 2900 2700 50  0001 C CNN
F 3 "" H 2900 2700 50  0001 C CNN
	1    2900 2700
	1    0    0    -1  
$EndComp
Wire Wire Line
	2700 2600 2600 2600
Wire Wire Line
	2700 2700 2600 2700
Wire Wire Line
	2700 2800 2600 2800
Wire Wire Line
	2700 2900 2600 2900
$Comp
L power:GND #PWR0158
U 1 1 5E4E3B69
P 2600 2600
F 0 "#PWR0158" H 2600 2350 50  0001 C CNN
F 1 "GND" V 2605 2472 50  0000 R CNN
F 2 "" H 2600 2600 50  0001 C CNN
F 3 "" H 2600 2600 50  0001 C CNN
	1    2600 2600
	0    1    1    0   
$EndComp
$Comp
L power:+5V #PWR0159
U 1 1 5E4E40E5
P 2600 2900
F 0 "#PWR0159" H 2600 2750 50  0001 C CNN
F 1 "+5V" V 2615 3028 50  0000 L CNN
F 2 "" H 2600 2900 50  0001 C CNN
F 3 "" H 2600 2900 50  0001 C CNN
	1    2600 2900
	0    -1   -1   0   
$EndComp
Text GLabel 2600 2700 0    50   BiDi ~ 0
UART_TX
Text GLabel 2600 2800 0    50   BiDi ~ 0
UART_RX
Wire Wire Line
	1150 1175 1675 1175
Text GLabel 2900 1275 2    50   Output ~ 0
MIDI-OUT
Text GLabel 2900 1375 2    50   Input ~ 0
MIDI-IN
Wire Wire Line
	2350 1375 2900 1375
Wire Wire Line
	2350 1275 2900 1275
Connection ~ 2125 1875
Wire Wire Line
	2125 1875 2125 1900
Wire Wire Line
	2125 1875 2575 1875
Connection ~ 2575 1875
Wire Wire Line
	2575 1875 2650 1875
Wire Wire Line
	1750 1875 1825 1875
Connection ~ 1750 1875
Connection ~ 1675 1875
Wire Wire Line
	1525 1875 1600 1875
Connection ~ 1600 1875
Wire Wire Line
	1600 1875 1675 1875
Connection ~ 1825 1875
Wire Wire Line
	1825 1875 2125 1875
Wire Wire Line
	4125 6650 4125 6800
Wire Wire Line
	4125 7675 3700 7675
Wire Wire Line
	3700 7075 3700 7675
Connection ~ 4125 7675
Wire Wire Line
	10475 6200 10475 6250
$Comp
L power:+5V #PWR?
U 1 1 5DFAA0D0
P 10475 6250
AR Path="/5DECDFAC/5D7CE77A/5DFAA0D0" Ref="#PWR?"  Part="1" 
AR Path="/5DECDFAC/5DFAA0D0" Ref="#PWR?"  Part="1" 
F 0 "#PWR?" H 10475 6100 50  0001 C CNN
F 1 "+5V" H 10490 6423 50  0000 C CNN
F 2 "" H 10475 6250 50  0001 C CNN
F 3 "" H 10475 6250 50  0001 C CNN
	1    10475 6250
	1    0    0    1   
$EndComp
Text GLabel 9525 5750 0    50   Input ~ 0
P20
Wire Wire Line
	9525 5750 9625 5750
$Comp
L Device:R_Small_US R?
U 1 1 5E21928B
P 10150 5750
AR Path="/5DECDFAC/5D7CE77A/5E21928B" Ref="R?"  Part="1" 
AR Path="/5DECDFAC/5E21928B" Ref="R64"  Part="1" 
F 0 "R64" V 10125 5850 50  0000 L CNN
F 1 "470" V 10075 5700 50  0000 L CNN
F 2 "Resistor_SMD:R_0805_2012Metric" H 10150 5750 50  0001 C CNN
F 3 "~" H 10150 5750 50  0001 C CNN
	1    10150 5750
	0    1    1    0   
$EndComp
Wire Wire Line
	9825 5750 10050 5750
$Comp
L Device:LED_Small_ALT D15
U 1 1 5E219271
P 9725 5750
F 0 "D15" H 9850 5800 50  0000 C CNN
F 1 "LED_Small_ALT" H 9725 5894 50  0001 C CNN
F 2 "LED_THT:LED_D3.0mm" V 9725 5750 50  0001 C CNN
F 3 "~" V 9725 5750 50  0001 C CNN
	1    9725 5750
	1    0    0    -1  
$EndComp
Wire Wire Line
	10250 6050 10475 6050
Wire Wire Line
	10475 6050 10475 6200
Connection ~ 10475 6200
Wire Wire Line
	10475 6050 10475 5900
Wire Wire Line
	10475 5900 10250 5900
Connection ~ 10475 6050
Wire Wire Line
	10475 5900 10475 5750
Wire Wire Line
	10475 5750 10250 5750
Connection ~ 10475 5900
Wire Wire Line
	10475 5750 10475 5600
Wire Wire Line
	10475 5600 10250 5600
Connection ~ 10475 5750
Wire Wire Line
	10475 5600 10475 5450
Wire Wire Line
	10475 5450 10250 5450
Connection ~ 10475 5600
Wire Wire Line
	10475 5450 10475 5300
Wire Wire Line
	10475 5300 10250 5300
Connection ~ 10475 5450
Wire Wire Line
	10475 5300 10475 5150
Wire Wire Line
	10475 5150 10250 5150
Connection ~ 10475 5300
$EndSCHEMATC
