PCBNEW-LibModule-V1  2019-09-14 10:39:31
# encoding utf-8
Units mm
$INDEX
57PC5F
$EndINDEX
$MODULE 57PC5F
Po 0 0 0 15 5d7cb553 00000000 ~~
Li 57PC5F
Cd 57PC5F-1
Kw Connector
Sc 0
At STD
AR 
Op 0 0 0
T0 -4.480 -7.202 1.27 1.27 0 0.254 N V 21 N "J**"
T1 -4.480 -7.202 1.27 1.27 0 0.254 N I 21 N "57PC5F"
DS -12.5 -17.505 3 -17.505 0.2 24
DS 3 -17.505 3 2.495 0.2 24
DS 3 2.495 -12.5 2.495 0.2 24
DS -12.5 2.495 -12.5 -17.505 0.2 24
DS -13.5 -18.505 4.54 -18.505 0.1 24
DS 4.54 -18.505 4.54 4.1 0.1 24
DS 4.54 4.1 -13.5 4.1 0.1 24
DS -13.5 4.1 -13.5 -18.505 0.1 24
DS 3 -15.01 3 -17.505 0.1 21
DS 3 -17.505 -12.5 -17.505 0.1 21
DS -12.5 -17.505 -12.5 2.495 0.1 21
DS -12.5 2.495 3 2.495 0.1 21
DS 3 2.495 3 -0.005 0.1 21
DS -0.1 3 -0.1 3 0.2 21
DS 0.1 3 0.1 3 0.2 21
DA 8.3266726846887E-17 3 -0.100 3 1800 0.2 21
DA 8.3266726846887E-17 3 0.100 3 1800 0.2 21
$PAD
Po 0.000 -0
Sh "1" C 2.100 2.100 0 0 900
Dr 1.4 0 0
At STD N 00E0FFFF
Ne 0 ""
$EndPAD
$PAD
Po 0.000 -7.505
Sh "2" C 2.100 2.100 0 0 900
Dr 1.4 0 0
At STD N 00E0FFFF
Ne 0 ""
$EndPAD
$PAD
Po 0.000 -15.01
Sh "3" C 2.100 2.100 0 0 900
Dr 1.4 0 0
At STD N 00E0FFFF
Ne 0 ""
$EndPAD
$PAD
Po 2.490 -2.5
Sh "4" C 2.100 2.100 0 0 900
Dr 1.4 0 0
At STD N 00E0FFFF
Ne 0 ""
$EndPAD
$PAD
Po 2.490 -12.51
Sh "5" C 2.100 2.100 0 0 900
Dr 1.4 0 0
At STD N 00E0FFFF
Ne 0 ""
$EndPAD
$PAD
Po -10.010 -5.005
Sh "6" C 2.100 2.100 0 0 900
Dr 1.4 0 0
At STD N 00E0FFFF
Ne 0 ""
$EndPAD
$PAD
Po -10.010 -10.005
Sh "7" C 2.100 2.100 0 0 900
Dr 1.4 0 0
At STD N 00E0FFFF
Ne 0 ""
$EndPAD
$PAD
Po -5.010 -0
Sh "MH1" C 3.585 3.585 0 0 900
Dr 2.39 0 0
At STD N 00E0FFFF
Ne 0 ""
$EndPAD
$PAD
Po -5.010 -15.01
Sh "MH2" C 3.585 3.585 0 0 900
Dr 2.39 0 0
At STD N 00E0FFFF
Ne 0 ""
$EndPAD
$EndMODULE 57PC5F
$EndLIBRARY
