(module KD043HR012AT-480272-KADI-4.3in-HMI-LCD (layer F.Cu) (tedit 5D7C90C8)
  (fp_text reference REF** (at 0 0.5) (layer F.SilkS)
    (effects (font (size 1 1) (thickness 0.15)))
  )
  (fp_text value KD043HR012AT-480272-KADI-4.3in-HMI-LCD (at 0 -0.5) (layer F.Fab)
    (effects (font (size 1 1) (thickness 0.15)))
  )
  (fp_line (start -70.0405 0) (end -70.0405 -53.9115) (layer F.SilkS) (width 0.12))
  (fp_line (start -70.0405 -53.9115) (end 69.9135 -53.9115) (layer F.SilkS) (width 0.12))
  (fp_line (start 69.9135 -53.9115) (end 69.9135 43.8785) (layer F.SilkS) (width 0.12))
  (fp_line (start 69.9135 43.8785) (end -70.0405 43.8785) (layer F.SilkS) (width 0.12))
  (fp_line (start -70.0405 43.8785) (end -70.0405 0) (layer F.SilkS) (width 0.12))
  (fp_line (start -59.817 -45.212) (end 61.1505 -45.212) (layer F.SilkS) (width 0.12))
  (fp_line (start 61.1505 -45.212) (end 61.1505 34.417) (layer F.SilkS) (width 0.12))
  (fp_line (start -59.817 -45.212) (end -59.817 34.417) (layer F.SilkS) (width 0.12))
  (fp_line (start -59.817 34.417) (end 61.1505 34.417) (layer F.SilkS) (width 0.12))
  (fp_line (start 48.5775 16.383) (end 48.5775 -38.481) (layer F.SilkS) (width 0.12))
  (fp_line (start 48.5775 -38.481) (end -47.4345 -38.481) (layer F.SilkS) (width 0.12))
  (fp_line (start -47.4345 -38.481) (end -47.4345 16.383) (layer F.SilkS) (width 0.12))
  (fp_line (start -47.4345 16.383) (end 48.5775 16.383) (layer F.SilkS) (width 0.12))
  (pad "" np_thru_hole circle (at 40.386 -52.2605) (size 3.1 3.1) (drill 3.1) (layers *.Cu *.Mask))
  (pad "" np_thru_hole circle (at -40.767 -52.2605) (size 3.1 3.1) (drill 3.1) (layers *.Cu *.Mask))
  (pad "" np_thru_hole circle (at -40.767 42.164) (size 3.1 3.1) (drill 3.1) (layers *.Cu *.Mask))
  (pad "" np_thru_hole circle (at 40.386 42.164) (size 3.1 3.1) (drill 3.1) (layers *.Cu *.Mask))
)
